4_ClasseB/dat/ALL0000/A0000CH1.CSV

Memory Length,5000,
Trigger Level,0.000E+00,
Source,CH1,
Vertical Units,V,
Vertical Scale,2.000E-01,
Vertical Position,0.000E+00,
Horizontal Units,s,
Horizontal Scale,1.000E-03,
Horizontal Position,0,
Horizontal Mode,XY Mode,
Sampling Period,4.000E-05,
Firmware,V1.11,
Time,20-Oct-14 23:15,
Waveform Data,
27,
26,
27,
24,
22,
23,
23,
23,
22,
22,
21,
20,
20,
19,
18,
18,
17,
17,
16,
16,
15,
14,
14,
14,
12,
13,
10,
11,
9,
9,
10,
10,
9,
7,
7,
8,
5,
5,
4,
4,
3,
2,
2,
2,
0,
0,
-1,
-1,
-1,
-4,
-4,
-2,
-4,
-4,
-5,
-5,
-7,
-7,
-9,
-8,
-8,
-10,
-11,
-11,
-12,
-13,
-12,
-11,
-13,
-16,
-15,
-16,
-15,
-17,
-18,
-18,
-19,
-18,
-20,
-21,
-21,
-21,
-21,
-24,
-24,
-24,
-24,
-25,
-27,
-26,
-26,
-27,
-28,
-28,
-28,
-30,
-30,
-31,
-33,
-33,
-32,
-34,
-33,
-35,
-35,
-35,
-36,
-37,
-38,
-37,
-39,
-39,
-39,
-41,
-41,
-43,
-43,
-43,
-43,
-44,
-44,
-44,
-46,
-47,
-46,
-46,
-46,
-47,
-49,
-50,
-48,
-50,
-51,
-51,
-51,
-51,
-51,
-51,
-52,
-54,
-54,
-54,
-55,
-56,
-56,
-57,
-57,
-57,
-57,
-58,
-59,
-58,
-59,
-60,
-61,
-62,
-61,
-62,
-61,
-64,
-62,
-64,
-65,
-65,
-64,
-64,
-65,
-67,
-66,
-66,
-67,
-67,
-68,
-67,
-69,
-68,
-70,
-69,
-69,
-70,
-71,
-72,
-71,
-71,
-72,
-73,
-71,
-74,
-72,
-74,
-73,
-73,
-75,
-74,
-75,
-76,
-75,
-75,
-76,
-76,
-77,
-77,
-77,
-77,
-76,
-77,
-78,
-78,
-78,
-79,
-78,
-79,
-78,
-79,
-81,
-79,
-80,
-80,
-82,
-81,
-80,
-80,
-81,
-80,
-82,
-82,
-81,
-82,
-82,
-83,
-83,
-83,
-82,
-81,
-82,
-83,
-84,
-82,
-82,
-83,
-83,
-82,
-84,
-83,
-83,
-83,
-85,
-84,
-83,
-83,
-84,
-83,
-84,
-83,
-86,
-83,
-84,
-84,
-84,
-83,
-85,
-84,
-83,
-84,
-84,
-84,
-83,
-83,
-81,
-84,
-83,
-84,
-83,
-83,
-83,
-83,
-82,
-84,
-82,
-82,
-81,
-82,
-82,
-83,
-82,
-81,
-81,
-81,
-81,
-81,
-80,
-80,
-80,
-80,
-80,
-79,
-79,
-79,
-80,
-78,
-78,
-79,
-78,
-78,
-78,
-78,
-78,
-77,
-76,
-77,
-76,
-76,
-75,
-75,
-75,
-76,
-77,
-74,
-73,
-74,
-74,
-74,
-74,
-73,
-73,
-72,
-73,
-73,
-70,
-70,
-71,
-71,
-69,
-68,
-68,
-67,
-67,
-68,
-67,
-65,
-66,
-65,
-65,
-66,
-65,
-65,
-64,
-63,
-61,
-63,
-61,
-61,
-59,
-60,
-60,
-59,
-59,
-59,
-57,
-57,
-58,
-58,
-56,
-55,
-55,
-55,
-53,
-53,
-53,
-53,
-50,
-50,
-50,
-50,
-49,
-49,
-49,
-48,
-48,
-46,
-46,
-46,
-46,
-45,
-44,
-43,
-43,
-42,
-42,
-40,
-40,
-41,
-40,
-40,
-38,
-37,
-37,
-37,
-35,
-37,
-34,
-35,
-34,
-32,
-30,
-32,
-31,
-29,
-29,
-29,
-27,
-27,
-25,
-27,
-26,
-25,
-24,
-24,
-22,
-22,
-21,
-21,
-20,
-20,
-18,
-17,
-19,
-18,
-16,
-16,
-16,
-14,
-15,
-14,
-14,
-12,
-12,
-13,
-11,
-8,
-9,
-10,
-9,
-8,
-6,
-5,
-4,
-5,
-4,
-4,
-2,
-2,
-1,
0,
-1,
1,
1,
3,
3,
2,
3,
4,
6,
6,
7,
7,
9,
10,
10,
11,
10,
10,
14,
13,
12,
14,
15,
15,
16,
15,
16,
19,
19,
18,
21,
21,
21,
21,
23,
22,
23,
23,
23,
25,
25,
25,
27,
28,
28,
29,
29,
29,
30,
30,
31,
34,
33,
34,
35,
36,
33,
36,
36,
38,
37,
38,
40,
40,
39,
40,
42,
42,
43,
43,
43,
45,
45,
45,
46,
45,
47,
47,
47,
48,
48,
48,
50,
51,
50,
50,
50,
52,
52,
52,
53,
54,
53,
55,
55,
55,
55,
58,
58,
57,
58,
58,
58,
58,
59,
61,
61,
60,
61,
61,
62,
62,
62,
63,
63,
63,
63,
63,
64,
65,
65,
65,
65,
65,
67,
67,
68,
67,
69,
68,
69,
68,
67,
68,
69,
71,
71,
69,
70,
70,
70,
73,
71,
72,
71,
71,
72,
73,
72,
72,
72,
73,
74,
74,
73,
74,
73,
74,
74,
75,
73,
74,
75,
74,
74,
76,
75,
75,
75,
75,
76,
75,
74,
74,
76,
74,
76,
76,
77,
75,
75,
76,
75,
76,
75,
76,
77,
75,
76,
76,
76,
75,
77,
75,
77,
75,
75,
76,
76,
77,
75,
75,
77,
76,
76,
76,
76,
76,
76,
76,
76,
77,
76,
75,
75,
74,
75,
75,
74,
75,
76,
76,
75,
74,
76,
73,
73,
73,
73,
74,
73,
74,
74,
74,
75,
74,
74,
74,
73,
73,
72,
71,
72,
72,
72,
72,
70,
72,
70,
71,
72,
71,
70,
71,
70,
69,
69,
69,
67,
68,
68,
70,
68,
68,
67,
68,
67,
67,
65,
67,
65,
64,
65,
64,
65,
64,
65,
64,
63,
64,
64,
62,
63,
62,
62,
62,
62,
60,
60,
60,
59,
60,
60,
59,
58,
58,
59,
57,
56,
56,
55,
55,
54,
55,
53,
53,
53,
54,
53,
52,
51,
51,
51,
51,
50,
49,
50,
49,
49,
48,
48,
47,
47,
46,
45,
44,
45,
43,
43,
43,
43,
41,
41,
41,
41,
39,
40,
40,
39,
37,
37,
37,
36,
35,
34,
35,
34,
34,
32,
31,
31,
31,
31,
30,
29,
29,
28,
27,
26,
26,
26,
24,
25,
25,
24,
25,
22,
21,
21,
21,
20,
19,
20,
18,
18,
18,
16,
16,
15,
16,
14,
15,
15,
13,
13,
13,
12,
10,
12,
10,
9,
8,
8,
6,
6,
6,
5,
4,
5,
3,
3,
3,
2,
1,
0,
-1,
0,
-1,
-2,
-2,
-3,
-3,
-6,
-5,
-6,
-7,
-8,
-8,
-9,
-9,
-10,
-10,
-13,
-12,
-13,
-12,
-13,
-14,
-15,
-15,
-15,
-14,
-16,
-18,
-18,
-18,
-18,
-18,
-20,
-21,
-21,
-21,
-22,
-23,
-23,
-24,
-24,
-24,
-24,
-25,
-27,
-28,
-29,
-30,
-31,
-30,
-31,
-30,
-31,
-33,
-33,
-34,
-34,
-34,
-35,
-35,
-36,
-37,
-40,
-37,
-39,
-40,
-40,
-41,
-40,
-41,
-42,
-44,
-43,
-42,
-45,
-45,
-45,
-45,
-47,
-46,
-47,
-47,
-48,
-49,
-48,
-49,
-49,
-51,
-51,
-52,
-52,
-51,
-54,
-52,
-53,
-54,
-55,
-54,
-55,
-57,
-57,
-57,
-58,
-59,
-59,
-59,
-59,
-60,
-59,
-60,
-61,
-61,
-63,
-64,
-64,
-64,
-64,
-64,
-64,
-66,
-65,
-66,
-65,
-67,
-69,
-68,
-67,
-69,
-68,
-69,
-71,
-68,
-69,
-72,
-69,
-70,
-72,
-72,
-72,
-73,
-74,
-73,
-72,
-74,
-75,
-75,
-74,
-74,
-76,
-76,
-76,
-76,
-78,
-77,
-77,
-76,
-78,
-75,
-78,
-78,
-78,
-78,
-79,
-79,
-81,
-79,
-78,
-81,
-80,
-80,
-80,
-81,
-81,
-81,
-81,
-80,
-81,
-82,
-82,
-82,
-82,
-82,
-83,
-84,
-83,
-83,
-82,
-81,
-82,
-83,
-84,
-82,
-83,
-84,
-84,
-82,
-84,
-83,
-83,
-83,
-85,
-83,
-82,
-84,
-84,
-84,
-83,
-84,
-84,
-84,
-83,
-85,
-85,
-85,
-86,
-84,
-83,
-85,
-83,
-83,
-83,
-84,
-82,
-84,
-84,
-83,
-83,
-82,
-82,
-84,
-83,
-81,
-83,
-82,
-82,
-82,
-82,
-81,
-81,
-81,
-82,
-81,
-82,
-80,
-80,
-81,
-80,
-79,
-79,
-80,
-79,
-79,
-80,
-78,
-79,
-77,
-78,
-78,
-78,
-77,
-77,
-77,
-77,
-76,
-77,
-77,
-76,
-75,
-75,
-74,
-75,
-75,
-75,
-72,
-73,
-73,
-73,
-73,
-72,
-73,
-73,
-71,
-71,
-70,
-71,
-68,
-69,
-69,
-66,
-69,
-67,
-69,
-68,
-66,
-66,
-66,
-65,
-64,
-64,
-65,
-63,
-63,
-61,
-63,
-61,
-60,
-60,
-61,
-60,
-59,
-60,
-59,
-58,
-58,
-57,
-56,
-55,
-56,
-55,
-55,
-54,
-52,
-53,
-53,
-50,
-51,
-50,
-51,
-50,
-49,
-47,
-47,
-47,
-48,
-46,
-45,
-44,
-44,
-44,
-44,
-43,
-42,
-41,
-41,
-41,
-41,
-40,
-39,
-38,
-37,
-37,
-37,
-37,
-34,
-33,
-34,
-34,
-34,
-33,
-30,
-31,
-29,
-29,
-29,
-29,
-27,
-26,
-26,
-26,
-24,
-25,
-22,
-22,
-21,
-21,
-22,
-20,
-19,
-19,
-20,
-17,
-18,
-16,
-17,
-15,
-14,
-15,
-14,
-14,
-13,
-12,
-11,
-9,
-10,
-8,
-8,
-8,
-7,
-8,
-6,
-5,
-3,
-3,
-3,
-1,
-3,
-1,
0,
1,
0,
2,
3,
3,
5,
3,
6,
5,
5,
7,
9,
9,
9,
9,
10,
12,
11,
11,
13,
13,
13,
14,
15,
16,
17,
18,
19,
17,
19,
19,
22,
21,
22,
20,
22,
23,
24,
25,
26,
26,
26,
27,
28,
27,
28,
30,
29,
30,
32,
31,
32,
34,
34,
35,
35,
36,
36,
37,
39,
37,
39,
39,
40,
40,
41,
41,
42,
43,
41,
45,
44,
45,
44,
46,
47,
47,
46,
47,
47,
48,
49,
48,
50,
51,
51,
51,
51,
51,
54,
53,
54,
55,
54,
55,
55,
57,
56,
56,
58,
58,
59,
57,
59,
60,
58,
61,
60,
60,
61,
62,
64,
63,
63,
62,
66,
63,
65,
65,
66,
65,
66,
66,
66,
65,
67,
67,
67,
67,
67,
68,
69,
68,
69,
69,
69,
70,
69,
71,
69,
72,
72,
71,
72,
70,
72,
72,
73,
73,
73,
74,
72,
74,
74,
73,
74,
73,
73,
75,
75,
75,
73,
75,
75,
74,
74,
73,
75,
76,
75,
76,
75,
73,
75,
76,
76,
77,
75,
76,
76,
74,
75,
75,
76,
77,
76,
77,
77,
77,
77,
76,
74,
76,
76,
78,
76,
77,
76,
77,
76,
77,
77,
76,
77,
76,
76,
76,
74,
76,
75,
75,
76,
75,
75,
75,
75,
74,
75,
75,
74,
74,
75,
74,
74,
75,
75,
74,
73,
74,
73,
73,
75,
72,
75,
73,
72,
74,
73,
73,
74,
73,
73,
72,
72,
70,
71,
72,
71,
70,
72,
70,
70,
71,
70,
70,
70,
69,
69,
71,
67,
68,
68,
68,
67,
67,
68,
65,
66,
66,
66,
66,
66,
65,
65,
64,
64,
64,
64,
64,
64,
62,
62,
61,
63,
61,
62,
61,
62,
59,
60,
61,
61,
57,
59,
57,
59,
57,
56,
56,
56,
55,
54,
55,
55,
54,
53,
53,
52,
51,
53,
51,
51,
51,
49,
50,
50,
49,
49,
48,
46,
47,
46,
47,
45,
45,
45,
46,
44,
43,
42,
42,
42,
40,
41,
40,
39,
41,
39,
37,
37,
38,
38,
37,
34,
34,
35,
34,
35,
33,
32,
31,
31,
30,
29,
28,
27,
28,
27,
27,
24,
25,
23,
23,
22,
23,
23,
22,
22,
21,
21,
19,
20,
19,
19,
17,
17,
16,
16,
13,
15,
14,
14,
14,
13,
12,
12,
10,
11,
10,
9,
9,
8,
8,
6,
7,
7,
6,
4,
4,
3,
2,
3,
2,
0,
1,
-2,
-2,
-2,
-2,
-3,
-4,
-3,
-5,
-4,
-8,
-6,
-7,
-7,
-9,
-8,
-10,
-11,
-10,
-12,
-12,
-12,
-12,
-13,
-13,
-17,
-15,
-16,
-17,
-17,
-19,
-18,
-19,
-21,
-20,
-21,
-21,
-21,
-23,
-23,
-24,
-24,
-25,
-26,
-27,
-26,
-27,
-27,
-27,
-28,
-31,
-31,
-32,
-33,
-30,
-33,
-34,
-35,
-34,
-36,
-34,
-36,
-36,
-38,
-39,
-38,
-40,
-40,
-40,
-40,
-42,
-41,
-43,
-43,
-44,
-44,
-45,
-44,
-46,
-45,
-46,
-48,
-47,
-49,
-49,
-48,
-49,
-50,
-50,
-51,
-50,
-53,
-52,
-53,
-53,
-53,
-54,
-55,
-56,
-56,
-56,
-58,
-58,
-58,
-59,
-58,
-58,
-59,
-60,
-61,
-62,
-63,
-62,
-63,
-64,
-64,
-64,
-63,
-65,
-63,
-65,
-66,
-66,
-66,
-66,
-67,
-67,
-67,
-68,
-69,
-69,
-69,
-69,
-71,
-71,
-70,
-70,
-71,
-72,
-73,
-73,
-73,
-72,
-72,
-74,
-75,
-73,
-74,
-74,
-76,
-75,
-75,
-77,
-76,
-76,
-78,
-77,
-77,
-78,
-78,
-77,
-79,
-77,
-79,
-80,
-79,
-79,
-80,
-80,
-79,
-80,
-81,
-79,
-80,
-81,
-80,
-80,
-82,
-81,
-81,
-81,
-81,
-82,
-81,
-81,
-81,
-81,
-82,
-83,
-81,
-83,
-83,
-81,
-83,
-83,
-82,
-83,
-82,
-83,
-84,
-83,
-83,
-83,
-83,
-84,
-84,
-82,
-83,
-84,
-83,
-85,
-84,
-85,
-84,
-84,
-84,
-84,
-85,
-84,
-84,
-82,
-84,
-84,
-85,
-84,
-84,
-83,
-82,
-84,
-83,
-84,
-82,
-82,
-83,
-83,
-83,
-81,
-81,
-82,
-82,
-82,
-81,
-80,
-79,
-82,
-82,
-81,
-81,
-81,
-80,
-80,
-81,
-78,
-80,
-80,
-79,
-78,
-79,
-77,
-78,
-78,
-78,
-77,
-78,
-77,
-77,
-76,
-77,
-77,
-75,
-77,
-76,
-74,
-74,
-74,
-74,
-72,
-73,
-72,
-72,
-73,
-71,
-71,
-71,
-71,
-69,
-70,
-71,
-68,
-70,
-68,
-69,
-68,
-66,
-68,
-66,
-64,
-67,
-65,
-64,
-64,
-64,
-63,
-63,
-62,
-62,
-62,
-60,
-61,
-60,
-59,
-59,
-58,
-58,
-58,
-57,
-56,
-55,
-56,
-55,
-54,
-53,
-54,
-52,
-53,
-51,
-52,
-51,
-50,
-51,
-49,
-50,
-48,
-46,
-47,
-46,
-45,
-46,
-46,
-44,
-44,
-43,
-44,
-43,
-41,
-41,
-42,
-40,
-40,
-38,
-39,
-37,
-36,
-37,
-36,
-33,
-36,
-33,
-34,
-33,
-33,
-32,
-30,
-29,
-29,
-27,
-26,
-28,
-26,
-25,
-26,
-23,
-24,
-24,
-22,
-21,
-21,
-21,
-20,
-20,
-17,
-17,
-18,
-18,
-16,
-16,
-15,
-15,
-14,
-14,
-12,
-12,
-12,
-11,
-10,
-11,
-9,
-7,
-8,
-8,
-5,
-7,
-5,
-4,
-4,
-3,
-1,
0,
-2,
0,
1,
0,
1,
2,
4,
5,
4,
5,
6,
7,
6,
7,
9,
9,
11,
11,
11,
14,
11,
14,
14,
14,
15,
16,
16,
16,
16,
18,
18,
17,
20,
20,
22,
21,
21,
24,
23,
22,
26,
26,
26,
26,
27,
27,
27,
29,
30,
30,
31,
31,
33,
31,
33,
34,
35,
36,
36,
35,
37,
37,
37,
39,
38,
39,
39,
41,
39,
43,
43,
43,
43,
43,
44,
47,
46,
46,
46,
47,
49,
47,
48,
49,
51,
51,
50,
51,
51,
52,
52,
53,
54,
53,
54,
55,
56,
56,
55,
57,
55,
58,
57,
56,
59,
59,
59,
61,
59,
62,
61,
60,
62,
64,
62,
62,
64,
65,
64,
65,
63,
64,
65,
64,
66,
66,
66,
66,
67,
67,
67,
67,
67,
68,
68,
68,
69,
69,
71,
69,
70,
71,
72,
70,
70,
71,
71,
69,
72,
73,
73,
72,
73,
73,
73,
73,
74,
73,
73,
74,
74,
75,
73,
75,
74,
74,
74,
75,
74,
73,
75,
76,
76,
75,
75,
75,
74,
75,
75,
76,
74,
76,
75,
77,
76,
75,
76,
76,
77,
76,
77,
76,
76,
76,
76,
76,
78,
76,
76,
76,
76,
76,
77,
76,
76,
77,
76,
77,
76,
76,
76,
76,
76,
75,
76,
76,
75,
75,
75,
74,
75,
75,
76,
76,
76,
75,
74,
75,
74,
74,
74,
74,
72,
73,
74,
73,
74,
74,
73,
74,
74,
72,
72,
72,
72,
72,
73,
72,
71,
70,
70,
70,
69,
71,
70,
70,
70,
70,
69,
69,
68,
69,
67,
69,
68,
68,
68,
65,
67,
67,
66,
65,
66,
65,
66,
65,
64,
64,
63,
64,
63,
64,
64,
62,
61,
63,
62,
60,
61,
62,
59,
60,
58,
59,
57,
57,
58,
57,
56,
58,
56,
54,
56,
54,
54,
53,
53,
53,
53,
53,
52,
51,
50,
51,
50,
50,
50,
48,
49,
49,
49,
47,
47,
46,
46,
46,
45,
45,
43,
44,
43,
43,
42,
41,
42,
41,
40,
38,
39,
39,
38,
37,
36,
37,
37,
35,
35,
35,
33,
32,
30,
31,
32,
30,
30,
29,
29,
28,
29,
27,
26,
25,
25,
25,
24,
24,
23,
22,
22,
20,
21,
21,
20,
20,
19,
19,
19,
17,
16,
16,
15,
14,
14,
13,
12,
13,
13,
12,
11,
11,
10,
10,
6,
8,
8,
5,
7,
5,
5,
4,
3,
4,
3,
3,
2,
1,
0,
0,
0,
-3,
-4,
-2,
-4,
-3,
-4,
-6,
-7,
-6,
-8,
-9,
-9,
-9,
-10,
-10,
-10,
-11,
-12,
-12,
-13,
-13,
-14,
-15,
-16,
-16,
-17,
-18,
-19,
-19,
-19,
-22,
-21,
-21,
-22,
-22,
-23,
-22,
-24,
-25,
-26,
-26,
-27,
-27,
-28,
-27,
-29,
-29,
-29,
-32,
-30,
-32,
-34,
-34,
-33,
-35,
-35,
-35,
-35,
-36,
-36,
-37,
-38,
-39,
-40,
-41,
-41,
-42,
-41,
-44,
-42,
-44,
-43,
-45,
-45,
-45,
-45,
-46,
-46,
-48,
-49,
-49,
-49,
-48,
-49,
-51,
-51,
-52,
-52,
-52,
-52,
-54,
-53,
-53,
-54,
-54,
-55,
-56,
-55,
-57,
-57,
-58,
-59,
-58,
-60,
-60,
-61,
-61,
-61,
-61,
-62,
-62,
-62,
-64,
-64,
-64,
-65,
-64,
-65,
-65,
-67,
-65,
-66,
-66,
-67,
-69,
-67,
-67,
-68,
-69,
-69,
-70,
-70,
-70,
-71,
-72,
-71,
-72,
-73,
-73,
-73,
-73,
-74,
-74,
-75,
-74,
-75,
-76,
-76,
-75,
-75,
-76,
-77,
-77,
-77,
-75,
-77,
-78,
-79,
-78,
-77,
-78,
-79,
-78,
-80,
-78,
-79,
-81,
-81,
-80,
-81,
-80,
-80,
-80,
-81,
-82,
-80,
-81,
-81,
-81,
-81,
-82,
-82,
-82,
-82,
-83,
-82,
-83,
-83,
-82,
-82,
-83,
-83,
-83,
-82,
-84,
-83,
-83,
-84,
-82,
-84,
-84,
-84,
-84,
-84,
-84,
-84,
-84,
-84,
-84,
-84,
-83,
-83,
-84,
-84,
-83,
-84,
-84,
-84,
-85,
-83,
-83,
-84,
-82,
-83,
-84,
-82,
-82,
-82,
-83,
-82,
-82,
-82,
-82,
-80,
-82,
-82,
-83,
-82,
-80,
-81,
-81,
-81,
-80,
-80,
-80,
-81,
-80,
-80,
-80,
-79,
-81,
-79,
-80,
-78,
-78,
-79,
-78,
-77,
-76,
-77,
-76,
-77,
-76,
-76,
-77,
-76,
-76,
-74,
-75,
-74,
-73,
-72,
-74,
-75,
-73,
-72,
-72,
-72,
-70,
-71,
-70,
-71,
-70,
-67,
-69,
-68,
-68,
-67,
-67,
-68,
-67,
-67,
-67,
-66,
-65,
-65,
-65,
-63,
-64,
-62,
-64,
-61,
-62,
-61,
-61,
-60,
-59,
-60,
-58,
-58,
-58,
-56,
-58,
-56,
-56,
-55,
-55,
-54,
-53,
-53,
-52,
-52,
-51,
-51,
-50,
-49,
-51,
-50,
-48,
-50,
-47,
-46,
-46,
-46,
-46,
-45,
-44,
-43,
-43,
-42,
-42,
-43,
-41,
-39,
-39,
-39,
-37,
-38,
-36,
-36,
-35,
-36,
-35,
-34,
-33,
-32,
-30,
-32,
-30,
-30,
-29,
-28,
-27,
-27,
-26,
-26,
-25,
-26,
-24,
-22,
-22,
-22,
-22,
-21,
-20,
-19,
-20,
-18,
-18,
-18,
-16,
-16,
-16,
-15,
-15,
-13,
-13,
-12,
-12,
-11,
-9,
-11,
-7,
-8,
-8,
-8,
-7,
-6,
-5,
-5,
-4,
-3,
-3,
-1,
-2,
-1,
0,
0,
2,
4,
3,
4,
3,
5,
5,
6,
7,
8,
9,
10,
9,
8,
11,
12,
12,
12,
13,
14,
14,
16,
15,
15,
17,
18,
17,
18,
20,
20,
21,
21,
21,
21,
23,
22,
24,
25,
25,
26,
27,
27,
28,
29,
28,
30,
31,
31,
32,
33,
31,
33,
34,
35,
36,
37,
35,
37,
37,
39,
39,
38,
40,
41,
41,
42,
44,
43,
43,
45,
44,
44,
46,
46,
46,
47,
48,
48,
49,
49,
49,
50,
51,
52,
52,
53,
53,
51,
53,
54,
55,
55,
54,
55,
55,
56,
56,
58,
58,
58,
58,
58,
61,
59,
61,
61,
61,
62,
62,
62,
64,
62,
64,
63,
65,
64,
65,
66,
66,
66,
66,
67,
67,
66,
67,
67,
68,
66,
67,
68,
68,
69,
69,
69,
69,
69,
70,
71,
70,
70,
72,
71,
72,
71,
72,
72,
72,
73,
72,
73,
72,
73,
72,
73,
73,
74,
74,
72,
73,
74,
75,
75,
75,
74,
76,
74,
74,
73,
75,
76,
75,
75,
76,
73,
77,
76,
77,
75,
76,
77,
76,
77,
75,
75,
76,
76,
75,
76,
76,
76,
76,
77,
76,
76,
76,
76,
77,
78,
76,
76,
76,
77,
77,
78,
75,
75,
76,
77,
76,
74,
75,
75,
75,
76,
75,
75,
74,
76,
75,
76,
74,
73,
75,
75,
74,
75,
73,
74,
74,
74,
73,
74,
73,
73,
74,
74,
74,
71,
72,
72,
71,
72,
72,
72,
73,
72,
71,
72,
69,
71,
70,
69,
70,
70,
69,
69,
69,
70,
68,
68,
68,
68,
67,
69,
67,
67,
67,
68,
67,
65,
66,
65,
65,
64,
63,
64,
64,
63,
63,
63,
62,
62,
62,
60,
61,
60,
60,
60,
60,
58,
59,
60,
59,
57,
56,
57,
57,
56,
56,
56,
54,
55,
54,
54,
53,
52,
53,
51,
51,
50,
50,
50,
50,
49,
50,
48,
47,
48,
46,
47,
47,
44,
45,
45,
45,
44,
43,
42,
43,
42,
41,
40,
40,
40,
41,
38,
39,
38,
36,
37,
35,
35,
34,
34,
34,
34,
32,
33,
33,
32,
30,
30,
28,
29,
28,
26,
26,
26,
25,
27,
24,
24,
23,
24,
23,
23,
21,
19,
20,
19,
19,
18,
19,
17,
17,
16,
17,
14,
14,
14,
12,
13,
13,
12,
12,
10,
10,
10,
8,
10,
9,
8,
5,
5,
7,
5,
4,
3,
2,
3,
2,
1,
1,
0,
-1,
-1,
-2,
-3,
-3,
-4,
-5,
-5,
-6,
-7,
-7,
-8,
-9,
-8,
-10,
-11,
-11,
-11,
-13,
-12,
-13,
-14,
-13,
-15,
-15,
-17,
-16,
-18,
-16,
-18,
-18,
-19,
-21,
-21,
-19,
-22,
-21,
-22,
-23,
-26,
-25,
-26,
-25,
-27,
-25,
-27,
-28,
-29,
-30,
-29,
-31,
-33,
-32,
-32,
-33,
-34,
-35,
-34,
-35,
-35,
-37,
-37,
-37,
-40,
-39,
-41,
-40,
-41,
-41,
-41,
-43,
-43,
-44,
-44,
-44,
-44,
-45,
-46,
-46,
-48,
-48,
-47,
-47,
-49,
-49,
-48,
-50,
-51,
-52,
-52,
-52,
-53,
-54,
-53,
-53,
-54,
-54,
-55,
-55,
-55,
-57,
-57,
-58,
-59,
-58,
-60,
-61,
-59,
-61,
-61,
-61,
-62,
-62,
-63,
-63,
-62,
-64,
-65,
-64,
-66,
-65,
-65,
-67,
-67,
-68,
-68,
-68,
-69,
-68,
-69,
-68,
-69,
-70,
-70,
-72,
-72,
-70,
-72,
-72,
-73,
-73,
-74,
-72,
-74,
-74,
-73,
-74,
-75,
-75,
-75,
-75,
-75,
-77,
-76,
-76,
-78,
-77,
-78,
-79,
-77,
-79,
-78,
-78,
-78,
-78,
-79,
-80,
-79,
-80,
-81,
-81,
-80,
-80,
-80,
-81,
-79,
-80,
-81,
-81,
-82,
-81,
-81,
-82,
-82,
-81,
-82,
-83,
-82,
-82,
-83,
-82,
-83,
-84,
-84,
-83,
-82,
-83,
-83,
-83,
-83,
-82,
-83,
-83,
-83,
-84,
-83,
-83,
-84,
-82,
-83,
-84,
-84,
-84,
-85,
-85,
-84,
-85,
-84,
-83,
-83,
-83,
-84,
-83,
-84,
-84,
-83,
-84,
-83,
-83,
-82,
-84,
-84,
-81,
-83,
-80,
-81,
-83,
-81,
-81,
-83,
-80,
-81,
-81,
-81,
-80,
-80,
-81,
-81,
-80,
-80,
-79,
-79,
-79,
-79,
-78,
-78,
-79,
-78,
-78,
-78,
-77,
-76,
-77,
-77,
-77,
-76,
-76,
-75,
-76,
-75,
-75,
-76,
-73,
-74,
-73,
-73,
-73,
-73,
-71,
-72,
-72,
-70,
-71,
-71,
-69,
-70,
-69,
-69,
-67,
-67,
-68,
-67,
-67,
-67,
-65,
-65,
-66,
-64,
-64,
-63,
-63,
-63,
-62,
-62,
-62,
-61,
-61,
-60,
-60,
-59,
-58,
-59,
-58,
-57,
-55,
-56,
-56,
-56,
-54,
-54,
-53,
-53,
-52,
-51,
-53,
-50,
-51,
-49,
-49,
-50,
-48,
-48,
-49,
-46,
-46,
-46,
-45,
-46,
-44,
-44,
-43,
-43,
-42,
-43,
-42,
-40,
-41,
-38,
-37,
-36,
-38,
-36,
-36,
-35,
-34,
-33,
-33,
-33,
-32,
-31,
-32,
-29,
-29,
-27,
-28,
-27,
-26,
-25,
-25,
-25,
-24,
-23,
-23,
-23,
-21,
-20,
-21,
-19,
-18,
-19,
-18,
-16,
-16,
-16,
-14,
-14,
-14,
-14,
-14,
-12,
-11,
-12,
-9,
-10,
-9,
-7,
-8,
-7,
-4,
-5,
-5,
-4,
-4,
-3,
-3,
-2,
0,
1,
1,
1,
1,
2,
3,
4,
4,
5,
6,
7,
6,
8,
6,
10,
9,
10,
12,
11,
12,
13,
13,
15,
15,
15,
14,
16,
18,
18,
18,
17,
19,
20,
19,
22,
23,
22,
23,
22,
23,
25,
25,
25,
27,
27,
27,
29,
30,
29,
31,
31,
31,
32,
32,
32,
35,
33,
36,
36,
36,
37,
39,
40,
40,
39,
42,
40,
41,
42,
41,
44,
45,
45,
45,
45,
45,
47,
48,
47,
48,
48,
48,
48,
51,
51,
50,
50,
52,
51,
52,
53,
53,
53,
55,
54,
55,
56,
56,
57,
57,
58,
59,
57,
60,
60,
61,
60,
60,
60,
61,
61,
62,
62,
63,
63,
64,
64,
64,
64,
65,
65,
65,
65,
64,
65,
67,
67,
67,
68,
68,
69,
69,
70,
68,
69,
69,
69,
69,
71,
70,
70,
69,
70,
72,
70,
71,
73,
72,
73,
72,
72,
74,
72,
74,
74,
74,
73,
74,
75,
73,
74,
74,
75,
74,
74,
76,
75,
75,
74,
74,
75,
74,
76,
76,
75,
74,
75,
77,
74,
75,
75,
77,
75,
76,
76,
75,
75,
75,
76,
76,
76,
77,
76,
77,
76,
76,
77,
77,
77,
76,
77,
77,
76,
76,
77,
77,
76,
76,
76,
77,
76,
75,
77,
76,
76,
76,
75,
75,
75,
75,
74,
75,
74,
74,
73,
75,
74,
75,
74,
73,
73,
74,
74,
73,
73,
73,
73,
73,
72,
73,
73,
73,
74,
73,
73,
73,
72,
71,
71,
71,
71,
71,
70,
70,
70,
70,
68,
70,
69,
68,
69,
69,
67,
69,
68,
67,
68,
67,
66,
67,
66,
66,
66,
64,
64,
65,
64,
65,
65,
64,
62,
63,
63,
61,
63,
61,
61,
62,
61,
60,
58,
60,
57,
59,
58,
57,
57,
58,
56,
56,
56,
54,
54,
56,
54,
55,
52,
53,
53,
52,
51,
52,
51,
50,
51,
49,
49,
48,
48,
50,
45,
48,
47,
48,
45,
45,
45,
45,
45,
43,
42,
43,
43,
42,
41,
40,
38,
40,
39,
38,
37,
37,
39,
36,
37,
35,
35,
34,
34,
34,
32,
31,
31,
31,
31,
29,
30,
27,
27,
27,
26,
25,
25,
24,
24,
23,
23,
22,
21,
20,
21,
20,
19,
19,
18,
18,
18,
16,
18,
16,
16,
14,
13,
13,
14,
12,
11,
12,
11,
9,
9,
8,
8,
8,
7,
7,
5,
4,
5,
4,
3,
3,
2,
1,
0,
1,
-1,
-2,
-1,
-2,
-4,
-4,
-5,
-5,
-6,
-6,
-7,
-8,
-7,
-8,
-9,
-10,
-10,
-11,
-12,
-13,
-13,
-13,
-13,
-14,
-16,
-16,
-16,
-17,
-17,
-18,
-18,
-20,
-19,
-20,
-21,
-21,
-22,
-22,
-24,
-22,
-26,
-25,
-25,
-27,
-26,
-27,
-28,
-29,
-30,
-29,
-30,
-32,
-30,
-30,
-33,
-35,
-34,
-34,
-35,
-37,
-37,
-36,
-37,
-39,
-37,
-38,
-39,
-42,
-40,
-41,
-42,
-42,
-43,
-43,
-44,
-44,
-44,
-45,
-45,
-45,
-47,
-48,
-48,
-48,
-49,
-49,
-50,
-49,
-50,
-51,
-51,
-51,
-53,
-54,
-54,
-54,
-54,
-54,
-57,
-56,
-57,
-57,
-57,
-59,
-57,
-59,
-59,
-60,
-60,
-61,
-62,
-61,
-62,
-63,
-64,
-64,
-64,
-64,
-64,
-65,
-66,
-65,
-67,
-67,
-67,
-66,
-69,
-68,
-68,
-69,
-68,
-70,
-69,
-70,
-71,
-70,
-72,
-71,
-72,
-73,
-73,
-73,
-73,
-72,
-74,
-76,
-76,
-74,
-76,
-75,
-75,
-75,
-76,
-78,
-76,
-76,
-78,
-77,
-77,
-76,
-78,
-78,
-79,
-78,
-80,
-78,
-80,
-80,
-80,
-81,
-81,
-80,
-80,
-80,
-80,
-80,
-81,
-81,
-81,
-81,
-83,
-81,
-82,
-82,
-82,
-83,
-82,
-83,
-82,
-82,
-84,
-83,
-83,
-82,
-83,
-83,
-83,
-83,
-82,
-83,
-84,
-84,
-84,
-83,
-84,
-83,
-83,
-83,
-84,
-84,
-83,
-83,
-85,
-86,
-83,
-84,
-83,
-84,
-84,
-83,
-83,
-84,
-85,
-83,
-82,
-82,
-83,
-83,
-82,
-82,
-83,
-82,
-82,
-82,
-81,
-82,
-81,
-82,
-82,
-81,
-81,
-82,
-81,
-80,
-81,
-82,
-80,
-79,
-80,
-81,
-80,
-80,
-80,
-79,
-80,
-80,
-79,
-78,
-78,
-77,
-76,
-78,
-77,
-77,
-77,
-77,
-76,
-75,
-76,
-75,
-75,
-74,
-75,
-74,
-75,
-73,
-73,
-74,
-73,
-71,
-71,
-72,
-72,
-70,
-68,
-69,
-69,
-69,
-70,
-68,
-68,
-67,
-67,
-66,
-65,
-66,
-64,
-64,
-64,
-65,
-64,
-63,
-62,
-62,
-62,
-61,
