3_ClasseA/dat/ALL0000/A0000CH2.CSV

Memory Length,5000,
Trigger Level,0.000E+00,
Source,CH2,
Vertical Units,V,
Vertical Scale,2.000E-01,
Vertical Position,8.000E-03,
Horizontal Units,s,
Horizontal Scale,1.000E-03,
Horizontal Position,0,
Horizontal Mode,XY Mode,
Sampling Period,4.000E-05,
Firmware,V1.11,
Time,14-Oct-14  0:35,
Waveform Data,
-64,
-61,
-61,
-62,
-61,
-58,
-58,
-58,
-57,
-57,
-56,
-55,
-56,
-53,
-53,
-52,
-52,
-51,
-51,
-49,
-50,
-48,
-48,
-48,
-48,
-45,
-44,
-44,
-43,
-43,
-42,
-40,
-40,
-40,
-40,
-40,
-39,
-37,
-36,
-36,
-35,
-34,
-33,
-32,
-33,
-32,
-31,
-30,
-29,
-27,
-29,
-27,
-27,
-27,
-24,
-24,
-23,
-22,
-21,
-22,
-20,
-19,
-18,
-19,
-17,
-17,
-14,
-14,
-15,
-15,
-12,
-12,
-11,
-11,
-11,
-8,
-8,
-6,
-8,
-6,
-4,
-5,
-4,
-3,
-1,
-1,
0,
-1,
1,
0,
2,
2,
5,
5,
5,
6,
6,
7,
9,
8,
8,
10,
12,
13,
12,
14,
13,
13,
14,
16,
16,
16,
17,
18,
18,
19,
21,
21,
21,
22,
24,
23,
25,
24,
26,
26,
29,
28,
29,
29,
29,
30,
31,
32,
31,
32,
33,
33,
34,
35,
35,
37,
36,
37,
38,
40,
40,
40,
41,
40,
41,
44,
42,
42,
43,
45,
44,
45,
47,
46,
47,
47,
48,
49,
49,
50,
50,
51,
52,
54,
53,
52,
54,
54,
54,
55,
56,
56,
56,
57,
57,
59,
58,
59,
57,
60,
61,
61,
61,
62,
62,
62,
62,
63,
63,
63,
64,
64,
64,
64,
65,
65,
65,
65,
65,
66,
68,
67,
68,
68,
70,
67,
67,
68,
69,
70,
69,
70,
69,
70,
69,
70,
69,
72,
72,
72,
71,
71,
71,
72,
71,
72,
72,
73,
72,
72,
75,
72,
72,
73,
73,
72,
75,
72,
74,
74,
75,
74,
74,
74,
74,
74,
74,
75,
74,
73,
73,
75,
74,
75,
74,
75,
74,
74,
74,
76,
75,
74,
74,
74,
76,
74,
75,
76,
76,
73,
75,
75,
75,
74,
74,
73,
75,
74,
74,
73,
74,
75,
74,
74,
72,
72,
74,
72,
72,
73,
71,
73,
72,
72,
72,
72,
72,
70,
70,
72,
71,
71,
70,
71,
69,
69,
71,
70,
69,
69,
69,
70,
69,
68,
69,
69,
69,
69,
68,
69,
68,
68,
68,
66,
67,
66,
66,
65,
64,
65,
65,
64,
64,
64,
64,
63,
63,
64,
63,
63,
61,
62,
62,
61,
60,
61,
61,
60,
60,
59,
59,
59,
58,
59,
56,
56,
57,
56,
56,
54,
54,
54,
54,
54,
53,
52,
52,
51,
52,
50,
51,
50,
50,
49,
49,
49,
49,
48,
45,
45,
45,
45,
45,
45,
44,
44,
40,
41,
41,
40,
40,
38,
38,
37,
38,
37,
37,
36,
35,
35,
34,
34,
32,
32,
32,
32,
30,
31,
29,
29,
29,
29,
28,
29,
27,
27,
25,
26,
27,
25,
23,
23,
21,
21,
21,
19,
20,
18,
16,
17,
16,
17,
16,
15,
15,
14,
14,
12,
13,
9,
8,
10,
8,
9,
7,
7,
7,
6,
6,
5,
3,
4,
2,
2,
2,
1,
0,
0,
0,
-2,
-2,
-3,
-3,
-5,
-6,
-6,
-6,
-6,
-6,
-8,
-9,
-10,
-10,
-11,
-11,
-13,
-12,
-16,
-14,
-15,
-15,
-16,
-16,
-17,
-19,
-19,
-21,
-21,
-21,
-22,
-22,
-22,
-24,
-26,
-24,
-26,
-27,
-29,
-30,
-30,
-31,
-32,
-33,
-32,
-33,
-33,
-33,
-35,
-36,
-36,
-36,
-37,
-37,
-38,
-40,
-40,
-41,
-42,
-41,
-43,
-44,
-43,
-44,
-45,
-47,
-46,
-47,
-46,
-49,
-49,
-49,
-50,
-51,
-51,
-51,
-52,
-54,
-54,
-55,
-56,
-56,
-56,
-57,
-59,
-58,
-59,
-59,
-62,
-60,
-62,
-62,
-64,
-64,
-64,
-64,
-64,
-67,
-67,
-67,
-67,
-68,
-68,
-68,
-69,
-69,
-71,
-70,
-71,
-72,
-72,
-72,
-73,
-74,
-74,
-75,
-76,
-76,
-76,
-78,
-78,
-78,
-78,
-79,
-80,
-80,
-80,
-81,
-81,
-82,
-83,
-83,
-82,
-82,
-84,
-83,
-85,
-87,
-86,
-86,
-88,
-85,
-87,
-88,
-88,
-89,
-88,
-90,
-90,
-90,
-91,
-91,
-90,
-91,
-92,
-93,
-92,
-92,
-92,
-93,
-93,
-93,
-93,
-92,
-94,
-95,
-94,
-94,
-94,
-96,
-94,
-95,
-96,
-96,
-96,
-96,
-95,
-96,
-96,
-96,
-95,
-97,
-97,
-96,
-97,
-97,
-96,
-96,
-96,
-97,
-97,
-97,
-95,
-96,
-96,
-96,
-96,
-96,
-95,
-96,
-96,
-96,
-96,
-96,
-96,
-95,
-96,
-95,
-96,
-95,
-95,
-96,
-95,
-96,
-96,
-96,
-96,
-96,
-96,
-96,
-96,
-95,
-96,
-96,
-96,
-96,
-96,
-95,
-96,
-96,
-96,
-96,
-96,
-96,
-95,
-96,
-95,
-96,
-96,
-95,
-96,
-96,
-96,
-95,
-95,
-94,
-95,
-95,
-96,
-95,
-96,
-95,
-94,
-94,
-95,
-94,
-96,
-95,
-94,
-96,
-96,
-96,
-95,
-95,
-96,
-94,
-93,
-95,
-96,
-95,
-96,
-95,
-96,
-94,
-96,
-94,
-96,
-96,
-95,
-95,
-96,
-95,
-94,
-96,
-95,
-96,
-94,
-96,
-94,
-92,
-94,
-94,
-92,
-93,
-91,
-91,
-92,
-91,
-91,
-92,
-91,
-91,
-90,
-91,
-89,
-90,
-90,
-88,
-87,
-86,
-86,
-87,
-86,
-86,
-84,
-85,
-84,
-83,
-82,
-82,
-81,
-81,
-81,
-81,
-80,
-80,
-77,
-78,
-78,
-77,
-76,
-75,
-76,
-75,
-76,
-74,
-73,
-72,
-72,
-71,
-72,
-72,
-70,
-69,
-69,
-67,
-68,
-66,
-66,
-66,
-67,
-64,
-64,
-64,
-63,
-62,
-61,
-59,
-59,
-59,
-58,
-58,
-56,
-56,
-56,
-56,
-54,
-53,
-54,
-52,
-51,
-52,
-51,
-49,
-48,
-48,
-48,
-48,
-46,
-46,
-44,
-44,
-44,
-42,
-43,
-42,
-42,
-40,
-40,
-39,
-38,
-36,
-36,
-36,
-35,
-34,
-33,
-33,
-32,
-32,
-32,
-30,
-30,
-29,
-27,
-27,
-27,
-24,
-24,
-24,
-22,
-23,
-22,
-21,
-20,
-19,
-17,
-17,
-16,
-16,
-16,
-15,
-15,
-11,
-13,
-12,
-11,
-11,
-10,
-10,
-9,
-8,
-5,
-6,
-5,
-6,
-2,
-2,
-3,
-1,
-1,
0,
0,
4,
2,
4,
3,
5,
6,
5,
8,
8,
8,
8,
10,
12,
11,
13,
13,
13,
13,
15,
15,
16,
16,
18,
17,
18,
18,
19,
20,
22,
22,
22,
24,
24,
25,
24,
24,
26,
27,
29,
29,
29,
29,
31,
30,
32,
32,
32,
33,
33,
35,
36,
37,
37,
37,
38,
38,
39,
40,
40,
41,
41,
42,
43,
43,
44,
42,
46,
48,
46,
47,
47,
49,
48,
49,
48,
50,
51,
51,
51,
53,
53,
55,
53,
54,
54,
55,
56,
56,
56,
56,
59,
58,
59,
58,
59,
60,
59,
61,
60,
61,
60,
61,
61,
62,
63,
64,
63,
63,
64,
64,
64,
65,
66,
66,
65,
66,
65,
68,
67,
68,
66,
68,
67,
68,
69,
69,
69,
69,
70,
70,
70,
70,
69,
69,
70,
70,
72,
70,
71,
72,
72,
71,
72,
72,
72,
72,
74,
73,
72,
72,
72,
73,
75,
74,
75,
72,
73,
72,
73,
73,
73,
73,
74,
75,
73,
74,
75,
75,
74,
72,
75,
76,
75,
75,
74,
75,
75,
74,
73,
75,
75,
74,
75,
75,
76,
74,
75,
75,
75,
73,
72,
73,
73,
74,
75,
74,
73,
75,
73,
74,
72,
72,
72,
72,
72,
72,
72,
73,
72,
72,
72,
72,
72,
72,
70,
70,
72,
70,
71,
69,
70,
72,
70,
70,
68,
70,
69,
69,
68,
70,
69,
68,
69,
69,
67,
68,
68,
66,
67,
67,
66,
66,
66,
64,
65,
64,
65,
64,
64,
64,
64,
63,
64,
62,
62,
63,
62,
62,
61,
61,
62,
61,
60,
59,
59,
60,
58,
59,
57,
57,
58,
56,
56,
57,
56,
55,
54,
53,
54,
54,
53,
53,
53,
51,
53,
51,
49,
50,
50,
50,
49,
48,
47,
46,
47,
47,
45,
45,
45,
43,
43,
43,
42,
42,
41,
41,
40,
39,
37,
39,
37,
37,
37,
38,
36,
35,
35,
33,
33,
32,
32,
32,
30,
31,
30,
29,
29,
29,
27,
28,
27,
25,
25,
25,
23,
23,
23,
22,
21,
20,
20,
19,
18,
18,
18,
17,
16,
15,
15,
16,
14,
13,
12,
13,
11,
10,
11,
10,
9,
8,
8,
6,
5,
6,
6,
5,
4,
2,
4,
2,
2,
0,
0,
0,
-1,
-2,
-3,
-3,
-3,
-5,
-5,
-7,
-7,
-7,
-8,
-9,
-9,
-9,
-10,
-11,
-12,
-13,
-12,
-13,
-14,
-15,
-16,
-17,
-18,
-18,
-19,
-19,
-20,
-21,
-23,
-22,
-22,
-24,
-24,
-24,
-25,
-26,
-29,
-30,
-31,
-30,
-30,
-32,
-32,
-33,
-34,
-35,
-35,
-35,
-36,
-37,
-37,
-37,
-38,
-39,
-39,
-40,
-43,
-40,
-41,
-43,
-43,
-44,
-44,
-44,
-44,
-45,
-48,
-48,
-49,
-50,
-50,
-50,
-51,
-52,
-52,
-52,
-54,
-54,
-54,
-56,
-56,
-56,
-58,
-58,
-59,
-58,
-60,
-60,
-61,
-61,
-64,
-64,
-64,
-64,
-65,
-65,
-65,
-67,
-67,
-67,
-69,
-69,
-68,
-70,
-70,
-69,
-71,
-72,
-73,
-72,
-73,
-74,
-73,
-75,
-75,
-76,
-74,
-77,
-78,
-78,
-79,
-79,
-80,
-79,
-80,
-80,
-80,
-82,
-83,
-82,
-83,
-84,
-83,
-83,
-85,
-86,
-86,
-86,
-85,
-86,
-87,
-88,
-88,
-88,
-88,
-88,
-89,
-91,
-89,
-90,
-91,
-91,
-91,
-92,
-92,
-93,
-92,
-92,
-92,
-93,
-93,
-94,
-92,
-94,
-94,
-95,
-94,
-95,
-95,
-95,
-94,
-96,
-94,
-95,
-96,
-97,
-97,
-94,
-95,
-96,
-97,
-98,
-96,
-96,
-96,
-96,
-99,
-96,
-96,
-97,
-96,
-97,
-96,
-96,
-96,
-96,
-96,
-97,
-96,
-96,
-95,
-97,
-96,
-96,
-96,
-96,
-96,
-96,
-96,
-96,
-96,
-96,
-97,
-94,
-96,
-96,
-96,
-96,
-95,
-96,
-96,
-96,
-96,
-95,
-96,
-96,
-95,
-96,
-96,
-97,
-96,
-96,
-96,
-96,
-96,
-96,
-95,
-95,
-95,
-95,
-96,
-96,
-96,
-95,
-96,
-94,
-94,
-95,
-96,
-95,
-94,
-94,
-96,
-96,
-96,
-94,
-96,
-94,
-93,
-96,
-95,
-95,
-96,
-96,
-96,
-96,
-96,
-95,
-96,
-94,
-95,
-95,
-94,
-96,
-94,
-94,
-95,
-96,
-94,
-95,
-95,
-96,
-96,
-94,
-95,
-94,
-94,
-95,
-92,
-94,
-94,
-92,
-92,
-92,
-92,
-91,
-91,
-90,
-93,
-90,
-90,
-90,
-90,
-89,
-88,
-89,
-88,
-88,
-87,
-86,
-88,
-86,
-86,
-84,
-85,
-83,
-84,
-83,
-82,
-83,
-81,
-81,
-80,
-81,
-79,
-78,
-78,
-79,
-78,
-77,
-76,
-76,
-74,
-74,
-74,
-73,
-73,
-71,
-71,
-71,
-71,
-70,
-68,
-67,
-68,
-67,
-67,
-66,
-65,
-65,
-64,
-64,
-63,
-63,
-61,
-61,
-59,
-60,
-59,
-59,
-56,
-57,
-58,
-56,
-55,
-54,
-55,
-53,
-52,
-51,
-51,
-50,
-49,
-48,
-48,
-49,
-48,
-47,
-44,
-45,
-43,
-43,
-42,
-42,
-41,
-40,
-38,
-40,
-41,
-36,
-37,
-35,
-36,
-35,
-34,
-33,
-33,
-32,
-32,
-31,
-30,
-29,
-27,
-27,
-26,
-24,
-24,
-24,
-24,
-22,
-21,
-21,
-20,
-20,
-17,
-17,
-18,
-16,
-16,
-15,
-15,
-12,
-13,
-12,
-11,
-11,
-11,
-10,
-9,
-8,
-8,
-5,
-5,
-3,
-4,
-3,
-4,
-2,
0,
-1,
0,
1,
2,
2,
3,
4,
5,
5,
5,
6,
8,
8,
9,
10,
11,
12,
12,
13,
13,
12,
15,
15,
16,
17,
18,
18,
20,
19,
21,
20,
21,
22,
23,
24,
24,
25,
27,
27,
27,
27,
28,
29,
29,
30,
31,
31,
32,
32,
32,
34,
34,
34,
34,
36,
36,
37,
37,
37,
40,
38,
40,
41,
42,
41,
43,
44,
43,
45,
44,
46,
46,
46,
48,
46,
48,
48,
51,
50,
49,
52,
51,
53,
52,
52,
54,
53,
54,
55,
56,
56,
56,
58,
57,
59,
58,
59,
59,
60,
61,
59,
62,
62,
62,
63,
63,
63,
64,
62,
64,
64,
64,
64,
64,
66,
65,
66,
67,
64,
69,
68,
68,
69,
68,
69,
69,
69,
66,
69,
69,
70,
69,
70,
72,
72,
70,
72,
70,
70,
71,
70,
72,
71,
72,
72,
72,
72,
72,
72,
71,
73,
74,
71,
72,
72,
73,
73,
74,
72,
72,
73,
74,
74,
74,
73,
73,
73,
75,
72,
74,
73,
74,
74,
73,
74,
72,
74,
73,
75,
74,
74,
74,
74,
75,
75,
72,
76,
75,
75,
72,
73,
75,
73,
75,
74,
73,
73,
74,
72,
72,
72,
73,
72,
72,
72,
73,
73,
72,
72,
72,
73,
71,
72,
72,
71,
72,
72,
71,
71,
70,
69,
70,
69,
69,
70,
69,
71,
71,
68,
69,
70,
69,
69,
69,
68,
68,
67,
68,
68,
68,
67,
67,
67,
66,
66,
66,
65,
65,
65,
65,
64,
63,
65,
64,
63,
63,
62,
61,
62,
63,
61,
61,
62,
61,
60,
59,
58,
59,
58,
58,
57,
56,
56,
57,
56,
56,
55,
54,
55,
54,
54,
53,
53,
52,
53,
51,
51,
53,
51,
50,
49,
48,
47,
47,
48,
48,
48,
47,
46,
45,
43,
42,
43,
43,
44,
41,
42,
40,
40,
40,
39,
38,
37,
38,
37,
36,
35,
35,
34,
33,
34,
32,
32,
32,
32,
31,
29,
30,
29,
29,
29,
28,
29,
26,
25,
24,
24,
24,
24,
22,
22,
21,
21,
20,
19,
19,
18,
18,
18,
16,
16,
16,
15,
13,
13,
13,
12,
9,
12,
11,
9,
9,
8,
6,
6,
7,
5,
5,
3,
4,
2,
4,
2,
1,
0,
0,
0,
-1,
-3,
-3,
-2,
-4,
-5,
-5,
-6,
-6,
-8,
-10,
-8,
-8,
-11,
-11,
-11,
-13,
-14,
-14,
-13,
-15,
-17,
-17,
-17,
-17,
-18,
-19,
-19,
-21,
-21,
-20,
-23,
-24,
-24,
-24,
-25,
-27,
-28,
-27,
-29,
-31,
-30,
-31,
-31,
-32,
-32,
-33,
-35,
-34,
-35,
-36,
-37,
-37,
-38,
-38,
-40,
-40,
-41,
-41,
-42,
-43,
-43,
-44,
-45,
-46,
-46,
-48,
-48,
-48,
-49,
-50,
-51,
-49,
-50,
-51,
-53,
-53,
-53,
-53,
-54,
-54,
-57,
-56,
-56,
-58,
-59,
-59,
-58,
-60,
-59,
-62,
-61,
-62,
-64,
-65,
-64,
-65,
-65,
-66,
-66,
-67,
-67,
-67,
-68,
-70,
-72,
-70,
-70,
-71,
-72,
-74,
-72,
-73,
-75,
-75,
-74,
-77,
-76,
-75,
-78,
-78,
-79,
-80,
-80,
-80,
-80,
-80,
-81,
-81,
-83,
-83,
-83,
-83,
-84,
-84,
-84,
-85,
-85,
-84,
-88,
-87,
-87,
-88,
-88,
-87,
-88,
-88,
-88,
-90,
-88,
-91,
-91,
-91,
-91,
-90,
-92,
-91,
-92,
-93,
-92,
-95,
-92,
-93,
-93,
-94,
-95,
-94,
-95,
-94,
-96,
-94,
-94,
-96,
-95,
-95,
-94,
-95,
-96,
-95,
-97,
-96,
-97,
-96,
-96,
-97,
-98,
-96,
-96,
-96,
-97,
-96,
-96,
-97,
-96,
-96,
-96,
-97,
-96,
-96,
-96,
-97,
-97,
-96,
-95,
-96,
-96,
-96,
-95,
-95,
-94,
-96,
-95,
-96,
-94,
-95,
-96,
-96,
-96,
-96,
-96,
-96,
-96,
-95,
-94,
-96,
-96,
-96,
-96,
-96,
-95,
-94,
-96,
-96,
-96,
-95,
-95,
-96,
-96,
-95,
-96,
-94,
-95,
-96,
-96,
-95,
-96,
-96,
-96,
-96,
-96,
-95,
-95,
-96,
-94,
-96,
-94,
-96,
-97,
-94,
-96,
-96,
-94,
-96,
-95,
-96,
-95,
-95,
-95,
-95,
-96,
-96,
-96,
-94,
-95,
-96,
-94,
-96,
-96,
-95,
-95,
-95,
-93,
-96,
-94,
-94,
-95,
-94,
-93,
-94,
-93,
-95,
-93,
-93,
-94,
-92,
-91,
-91,
-92,
-92,
-91,
-90,
-90,
-91,
-90,
-89,
-89,
-90,
-90,
-88,
-88,
-87,
-85,
-85,
-85,
-85,
-84,
-85,
-84,
-83,
-83,
-83,
-82,
-82,
-81,
-81,
-79,
-80,
-78,
-79,
-78,
-78,
-77,
-75,
-76,
-76,
-76,
-73,
-74,
-73,
-72,
-72,
-70,
-70,
-69,
-70,
-68,
-67,
-67,
-66,
-66,
-66,
-65,
-64,
-64,
-62,
-62,
-62,
-62,
-61,
-60,
-59,
-58,
-56,
-57,
-56,
-55,
-54,
-53,
-53,
-53,
-51,
-50,
-50,
-50,
-49,
-50,
-48,
-47,
-47,
-45,
-44,
-44,
-43,
-43,
-42,
-41,
-42,
-40,
-40,
-38,
-38,
-37,
-37,
-37,
-35,
-35,
-33,
-32,
-32,
-32,
-32,
-32,
-29,
-28,
-29,
-28,
-27,
-27,
-25,
-24,
-22,
-23,
-20,
-22,
-19,
-18,
-19,
-17,
-18,
-16,
-15,
-14,
-15,
-15,
-11,
-11,
-10,
-11,
-10,
-9,
-8,
-7,
-6,
-6,
-5,
-5,
-3,
-3,
-2,
-1,
0,
0,
0,
2,
2,
2,
4,
4,
5,
4,
8,
7,
7,
9,
10,
11,
12,
12,
12,
12,
13,
14,
15,
16,
16,
17,
17,
18,
19,
19,
20,
21,
22,
21,
23,
23,
24,
24,
24,
27,
27,
28,
28,
29,
30,
30,
31,
31,
32,
32,
33,
34,
34,
37,
35,
37,
37,
38,
37,
39,
38,
39,
40,
42,
40,
41,
42,
45,
43,
45,
46,
47,
47,
47,
49,
48,
49,
50,
48,
50,
51,
53,
53,
52,
52,
52,
53,
54,
54,
57,
56,
56,
56,
58,
58,
59,
59,
59,
58,
59,
60,
61,
61,
60,
62,
61,
63,
62,
63,
63,
64,
63,
64,
64,
65,
66,
66,
67,
67,
68,
68,
67,
68,
68,
67,
69,
68,
69,
69,
69,
70,
71,
70,
69,
71,
71,
71,
70,
72,
70,
72,
71,
72,
72,
72,
71,
71,
73,
73,
74,
72,
72,
74,
72,
72,
75,
73,
72,
73,
73,
73,
73,
72,
74,
75,
74,
75,
74,
76,
75,
74,
75,
75,
76,
74,
75,
74,
74,
76,
76,
75,
74,
76,
74,
75,
74,
75,
75,
76,
74,
74,
75,
73,
74,
72,
73,
74,
74,
72,
73,
73,
73,
72,
73,
72,
74,
72,
72,
72,
74,
72,
74,
70,
72,
72,
71,
73,
70,
72,
72,
70,
69,
71,
71,
70,
70,
69,
69,
67,
68,
68,
68,
70,
69,
69,
68,
68,
68,
67,
67,
66,
68,
68,
66,
66,
66,
65,
64,
66,
64,
64,
63,
63,
64,
64,
63,
63,
63,
62,
62,
61,
61,
61,
60,
60,
60,
59,
60,
61,
60,
58,
58,
58,
57,
56,
56,
55,
58,
55,
56,
55,
54,
54,
53,
53,
53,
52,
53,
51,
52,
50,
49,
49,
48,
48,
48,
48,
46,
47,
46,
46,
46,
44,
45,
42,
42,
41,
40,
40,
39,
39,
39,
40,
38,
38,
37,
37,
35,
35,
34,
33,
34,
34,
32,
32,
32,
29,
30,
29,
29,
29,
28,
26,
28,
27,
25,
24,
23,
24,
22,
22,
22,
20,
21,
19,
19,
18,
16,
18,
16,
16,
16,
16,
15,
14,
13,
14,
10,
10,
10,
9,
10,
10,
9,
8,
5,
7,
5,
6,
4,
5,
4,
2,
2,
1,
0,
0,
0,
0,
-3,
-3,
-4,
-4,
-5,
-5,
-9,
-7,
-8,
-9,
-9,
-10,
-10,
-12,
-12,
-12,
-12,
-14,
-14,
-15,
-16,
-16,
-18,
-18,
-19,
-18,
-19,
-19,
-20,
-20,
-22,
-24,
-26,
-23,
-26,
-28,
-27,
-27,
-30,
-30,
-30,
-32,
-32,
-31,
-34,
-34,
-34,
-35,
-36,
-36,
-37,
-38,
-38,
-38,
-40,
-40,
-40,
-42,
-41,
-43,
-42,
-45,
-44,
-44,
-45,
-47,
-48,
-48,
-49,
-49,
-50,
-49,
-51,
-51,
-52,
-53,
-52,
-53,
-56,
-54,
-56,
-56,
-58,
-57,
-57,
-59,
-60,
-61,
-61,
-62,
-62,
-62,
-64,
-64,
-64,
-64,
-64,
-65,
-68,
-67,
-67,
-67,
-68,
-70,
-69,
-70,
-72,
-70,
-71,
-71,
-74,
-73,
-75,
-75,
-72,
-76,
-77,
-76,
-78,
-78,
-79,
-77,
-80,
-80,
-79,
-81,
-80,
-81,
-81,
-83,
-83,
-82,
-85,
-83,
-84,
-85,
-86,
-85,
-86,
-86,
-86,
-88,
-88,
-88,
-88,
-90,
-90,
-90,
-90,
-91,
-91,
-91,
-91,
-91,
-92,
-93,
-91,
-93,
-92,
-92,
-93,
-93,
-94,
-93,
-95,
-94,
-94,
-94,
-96,
-96,
-95,
-96,
-96,
-94,
-96,
-96,
-96,
-96,
-96,
-95,
-97,
-97,
-98,
-97,
-97,
-97,
-95,
-96,
-96,
-97,
-96,
-97,
-96,
-96,
-96,
-96,
-96,
-96,
-97,
-95,
-96,
-95,
-96,
-96,
-96,
-96,
-96,
-96,
-95,
-96,
-95,
-94,
-96,
-94,
-96,
-95,
-96,
-95,
-96,
-96,
-96,
-96,
-96,
-96,
-94,
-94,
-96,
-95,
-96,
-95,
-95,
-95,
-95,
-94,
-95,
-95,
-95,
-96,
-95,
-94,
-96,
-94,
-94,
-96,
-96,
-95,
-95,
-95,
-96,
-96,
-96,
-96,
-96,
-94,
-94,
-94,
-94,
-96,
-96,
-94,
-95,
-94,
-94,
-94,
-96,
-95,
-95,
-95,
-95,
-95,
-95,
-95,
-94,
-95,
-96,
-94,
-95,
-96,
-94,
-96,
-96,
-95,
-95,
-95,
-94,
-94,
-93,
-93,
-94,
-94,
-94,
-93,
-94,
-92,
-93,
-91,
-92,
-91,
-92,
-91,
-90,
-90,
-90,
-89,
-88,
-89,
-88,
-88,
-88,
-86,
-86,
-86,
-86,
-84,
-83,
-84,
-83,
-83,
-82,
-82,
-81,
-81,
-80,
-80,
-79,
-80,
-78,
-78,
-76,
-76,
-77,
-75,
-74,
-76,
-74,
-74,
-74,
-73,
-71,
-72,
-71,
-68,
-70,
-69,
-67,
-67,
-65,
-66,
-66,
-65,
-65,
-64,
-64,
-63,
-62,
-61,
-60,
-60,
-60,
-58,
-58,
-59,
-58,
-56,
-55,
-53,
-54,
-53,
-52,
-52,
-51,
-50,
-51,
-48,
-48,
-48,
-46,
-46,
-47,
-45,
-43,
-43,
-43,
-42,
-41,
-39,
-41,
-40,
-38,
-38,
-35,
-36,
-35,
-35,
-35,
-34,
-32,
-33,
-32,
-31,
-30,
-29,
-29,
-27,
-27,
-26,
-26,
-25,
-24,
-22,
-20,
-21,
-21,
-19,
-20,
-18,
-18,
-16,
-18,
-14,
-15,
-14,
-12,
-12,
-12,
-10,
-11,
-11,
-9,
-8,
-6,
-6,
-5,
-5,
-3,
-3,
-3,
-3,
0,
-1,
0,
0,
0,
2,
2,
5,
4,
4,
6,
7,
8,
9,
8,
10,
10,
12,
13,
12,
13,
14,
14,
15,
16,
16,
16,
17,
19,
19,
18,
21,
21,
21,
20,
23,
24,
23,
23,
25,
27,
27,
28,
28,
29,
31,
30,
32,
33,
32,
32,
32,
34,
35,
33,
36,
39,
37,
37,
39,
39,
40,
40,
40,
42,
44,
43,
41,
45,
45,
46,
46,
46,
47,
46,
48,
48,
48,
50,
50,
51,
51,
52,
52,
52,
53,
52,
54,
56,
56,
57,
56,
55,
57,
58,
57,
59,
59,
59,
59,
59,
61,
61,
61,
63,
62,
62,
63,
62,
62,
62,
62,
64,
65,
66,
65,
64,
65,
66,
66,
67,
66,
67,
67,
67,
68,
68,
68,
69,
69,
69,
69,
68,
70,
71,
72,
71,
72,
70,
72,
71,
71,
72,
72,
72,
72,
71,
72,
72,
74,
73,
73,
72,
72,
72,
73,
74,
72,
73,
73,
74,
74,
73,
73,
74,
74,
75,
75,
73,
72,
74,
73,
75,
75,
74,
74,
75,
74,
74,
76,
76,
74,
74,
75,
76,
75,
74,
75,
75,
74,
74,
74,
76,
75,
75,
75,
76,
73,
73,
73,
73,
74,
73,
72,
72,
72,
71,
72,
72,
71,
72,
72,
72,
72,
72,
70,
72,
72,
72,
72,
70,
71,
69,
70,
69,
69,
69,
69,
70,
70,
68,
68,
68,
68,
69,
68,
69,
68,
67,
67,
68,
67,
68,
67,
65,
66,
65,
64,
65,
64,
64,
64,
63,
64,
63,
64,
64,
62,
62,
61,
61,
61,
61,
62,
61,
60,
58,
59,
58,
59,
59,
59,
58,
57,
58,
56,
55,
55,
55,
54,
53,
54,
53,
55,
53,
54,
53,
51,
52,
52,
48,
51,
48,
49,
48,
47,
48,
46,
46,
46,
46,
44,
43,
43,
42,
42,
41,
41,
42,
41,
38,
40,
37,
39,
37,
37,
36,
35,
35,
35,
34,
34,
32,
32,
32,
32,
30,
30,
29,
30,
29,
28,
28,
26,
26,
27,
25,
24,
24,
23,
23,
21,
20,
20,
21,
19,
18,
18,
18,
16,
16,
16,
16,
14,
13,
13,
13,
13,
12,
11,
11,
10,
10,
9,
8,
6,
6,
6,
5,
4,
5,
3,
2,
1,
0,
1,
0,
0,
-1,
-2,
-2,
-2,
-4,
-5,
-6,
-6,
-6,
-8,
-9,
-8,
-10,
-10,
-11,
-10,
-12,
-12,
-13,
-15,
-16,
-17,
-16,
-18,
-18,
-20,
-19,
-20,
-19,
-23,
-22,
-22,
-24,
-24,
-25,
-25,
-25,
-26,
-27,
-29,
-30,
-30,
-30,
-31,
-34,
-33,
-33,
-33,
-34,
-35,
-35,
-36,
-37,
-37,
-40,
-40,
-40,
-41,
-41,
-43,
-42,
-42,
-44,
-44,
-44,
-46,
-45,
-46,
-46,
-48,
-49,
-51,
-50,
-50,
-52,
-51,
-52,
-52,
-53,
-54,
-54,
-56,
-56,
-57,
-58,
-58,
-58,
-60,
-59,
-60,
-61,
-62,
-64,
-63,
-64,
-64,
-64,
-64,
-66,
-66,
-66,
-67,
-67,
-67,
-67,
-68,
-71,
-70,
-70,
-72,
-73,
-73,
-72,
-75,
-76,
-75,
-75,
-76,
-78,
-76,
-79,
-78,
-80,
-80,
-79,
-80,
-80,
-80,
-81,
-82,
-83,
-83,
-83,
-84,
-84,
-85,
-84,
-85,
-86,
-85,
-87,
-88,
-88,
-88,
-88,
-88,
-88,
-88,
-90,
-90,
-90,
-90,
-91,
-91,
-91,
-92,
-92,
-91,
-93,
-94,
-93,
-92,
-94,
-95,
-95,
-95,
-94,
-95,
-94,
-95,
-94,
-95,
-96,
-95,
-96,
-96,
-96,
-96,
-95,
-96,
-96,
-97,
-96,
-97,
-96,
-97,
-96,
-96,
-96,
-98,
-96,
-96,
-96,
-96,
-96,
-96,
-96,
-96,
-96,
-95,
-96,
-96,
-96,
-96,
-96,
-96,
-95,
-96,
-94,
-96,
-95,
-94,
-96,
-96,
-96,
-96,
-95,
-96,
-96,
-96,
-96,
-96,
-96,
-96,
-96,
-96,
-95,
-96,
-95,
-96,
-94,
-97,
-96,
-96,
-96,
-96,
-95,
-95,
-95,
-95,
-95,
-95,
-95,
-96,
-96,
-96,
-96,
-96,
-94,
-96,
-96,
-95,
-95,
-96,
-95,
-95,
-94,
-95,
-96,
-96,
-95,
-96,
-95,
-96,
-95,
-96,
-95,
-96,
-95,
-93,
-94,
-94,
-95,
-97,
-95,
-94,
-95,
-96,
-94,
-95,
-95,
-94,
-95,
-95,
-96,
-95,
-94,
-92,
-94,
-93,
-94,
-94,
-91,
-93,
-91,
-92,
-93,
-92,
-92,
-91,
-91,
-91,
-91,
-90,
-89,
-89,
-89,
-88,
-89,
-88,
-88,
-86,
-86,
-85,
-85,
-84,
-84,
-84,
-83,
-83,
-81,
-81,
-81,
-81,
-80,
-81,
-78,
-80,
-78,
-79,
-77,
-76,
-76,
-74,
-74,
-74,
-74,
-73,
-73,
-74,
-73,
-72,
-70,
-69,
-69,
-67,
-67,
-66,
-66,
-65,
-64,
-64,
-64,
-63,
-64,
-62,
-61,
-62,
-60,
-60,
-59,
-59,
-58,
-57,
-56,
-54,
-56,
-53,
-53,
-52,
-51,
-50,
-51,
-50,
-50,
-48,
-48,
-48,
-49,
-45,
-44,
-44,
-44,
-43,
-43,
-42,
-40,
-40,
-40,
-40,
-38,
-38,
-35,
-36,
-34,
-35,
-33,
-34,
-32,
-32,
-32,
-31,
-29,
-30,
-28,
-28,
-28,
-24,
-25,
-23,
-24,
-23,
-22,
-20,
-20,
-20,
-18,
-16,
-17,
-16,
-16,
-16,
-16,
-13,
-13,
-11,
-13,
-11,
-10,
-9,
-9,
-8,
-6,
-7,
-5,
-4,
-4,
-2,
-2,
-2,
-2,
0,
2,
2,
4,
3,
3,
5,
6,
5,
6,
8,
6,
8,
10,
11,
10,
10,
13,
13,
13,
14,
15,
16,
16,
18,
18,
18,
21,
19,
20,
20,
21,
21,
21,
24,
24,
26,
25,
24,
27,
29,
27,
28,
29,
29,
30,
31,
32,
31,
33,
35,
35,
34,
36,
36,
36,
38,
38,
39,
39,
38,
39,
42,
42,
42,
41,
43,
45,
45,
46,
47,
48,
47,
47,
47,
49,
49,
49,
48,
51,
51,
52,
53,
54,
54,
53,
54,
53,
54,
56,
56,
55,
56,
57,
58,
58,
58,
60,
62,
60,
61,
61,
61,
62,
62,
62,
62,
62,
63,
64,
64,
64,
64,
66,
65,
66,
66,
66,
66,
66,
67,
67,
68,
68,
70,
68,
69,
69,
70,
69,
69,
70,
69,
69,
71,
72,
69,
72,
70,
72,
72,
71,
72,
72,
71,
72,
72,
72,
72,
73,
71,
74,
74,
73,
74,
72,
72,
72,
74,
74,
73,
75,
74,
72,
75,
74,
74,
73,
73,
74,
75,
74,
73,
76,
75,
74,
74,
76,
75,
74,
74,
76,
76,
75,
75,
75,
75,
74,
75,
75,
74,
73,
75,
74,
74,
74,
74,
72,
72,
73,
73,
72,
72,
74,
74,
74,
73,
72,
70,
72,
73,
72,
72,
72,
71,
71,
72,
72,
71,
71,
69,
72,
70,
71,
69,
70,
70,
70,
68,
69,
70,
69,
69,
67,
68,
68,
67,
68,
67,
66,
66,
67,
67,
67,
66,
67,
65,
65,
64,
