1_/ALL0000/A0000CH1.CSV

Memory Length,5000,
Trigger Level,0.000E+00,
Source,CH1,
Vertical Units,V,
Vertical Scale,1.000E+00,
Vertical Position,0.000E+00,
Horizontal Units,s,
Horizontal Scale,5.000E-03,
Horizontal Position,0,
Horizontal Mode,XY Mode,
Sampling Period,2.000E-04,
Firmware,V1.11,
Time,22-Sep-14 23:52,
Waveform Data,
60,
61,
61,
63,
63,
63,
64,
63,
64,
64,
66,
67,
66,
67,
67,
69,
70,
69,
71,
70,
70,
71,
73,
73,
74,
76,
75,
76,
77,
76,
77,
78,
79,
78,
78,
78,
79,
80,
80,
81,
81,
82,
83,
82,
84,
84,
83,
84,
86,
85,
87,
86,
88,
87,
88,
89,
91,
89,
89,
90,
88,
91,
91,
89,
88,
91,
91,
91,
89,
91,
91,
91,
91,
93,
91,
91,
91,
90,
88,
89,
89,
89,
89,
88,
88,
87,
86,
86,
86,
86,
85,
84,
83,
82,
80,
81,
80,
78,
78,
77,
76,
75,
75,
74,
73,
71,
70,
70,
71,
67,
66,
66,
64,
66,
64,
62,
61,
60,
60,
59,
57,
57,
55,
54,
52,
53,
52,
50,
49,
48,
48,
47,
46,
45,
45,
45,
43,
43,
42,
42,
41,
40,
39,
39,
38,
36,
34,
35,
35,
35,
33,
33,
32,
33,
29,
29,
30,
29,
29,
28,
28,
27,
27,
26,
25,
26,
24,
22,
22,
21,
21,
22,
21,
21,
20,
19,
20,
18,
19,
18,
18,
17,
16,
17,
15,
15,
15,
14,
13,
15,
13,
13,
13,
12,
12,
12,
12,
9,
10,
9,
10,
9,
8,
7,
8,
7,
7,
8,
6,
8,
7,
6,
5,
5,
5,
4,
5,
4,
4,
3,
4,
2,
2,
2,
3,
3,
2,
2,
1,
2,
1,
0,
-1,
-1,
0,
0,
-2,
0,
-1,
-1,
-1,
-3,
-3,
-1,
-4,
-3,
-3,
-4,
-5,
-3,
-4,
-5,
-5,
-4,
-6,
-7,
-6,
-4,
-5,
-5,
-5,
-7,
-6,
-7,
-6,
-6,
-8,
-8,
-8,
-9,
-8,
-9,
-8,
-9,
-9,
-9,
-8,
-9,
-9,
-10,
-8,
-10,
-11,
-9,
-10,
-10,
-11,
-10,
-11,
-10,
-12,
-10,
-11,
-11,
-11,
-10,
-12,
-13,
-12,
-11,
-10,
-12,
-11,
-13,
-12,
-13,
-16,
-11,
-12,
-13,
-13,
-12,
-14,
-14,
-13,
-13,
-12,
-11,
-14,
-14,
-12,
-13,
-12,
-14,
-15,
-14,
-13,
-13,
-14,
-14,
-15,
-13,
-14,
-15,
-14,
-16,
-16,
-16,
-16,
-15,
-16,
-15,
-15,
-17,
-15,
-17,
-17,
-15,
-16,
-17,
-16,
-16,
-16,
-16,
-17,
-16,
-18,
-18,
-19,
-16,
-18,
-17,
-17,
-19,
-19,
-19,
-19,
-20,
-19,
-18,
-19,
-18,
-18,
-20,
-20,
-19,
-19,
-20,
-21,
-20,
-20,
-20,
-20,
-21,
-21,
-21,
-22,
-21,
-22,
-23,
-23,
-22,
-23,
-22,
-22,
-23,
-22,
-23,
-22,
-24,
-24,
-24,
-24,
-26,
-23,
-24,
-24,
-26,
-24,
-25,
-27,
-28,
-26,
-27,
-27,
-27,
-28,
-27,
-28,
-27,
-28,
-28,
-29,
-31,
-31,
-31,
-31,
-29,
-30,
-32,
-31,
-32,
-33,
-33,
-30,
-32,
-33,
-33,
-34,
-35,
-34,
-34,
-34,
-35,
-34,
-37,
-36,
-37,
-39,
-37,
-36,
-39,
-37,
-39,
-38,
-39,
-40,
-40,
-41,
-41,
-42,
-42,
-42,
-43,
-41,
-43,
-46,
-43,
-44,
-45,
-47,
-45,
-46,
-46,
-48,
-46,
-49,
-48,
-51,
-51,
-51,
-51,
-51,
-50,
-50,
-51,
-54,
-56,
-54,
-55,
-55,
-55,
-56,
-57,
-56,
-57,
-59,
-59,
-60,
-59,
-61,
-61,
-62,
-61,
-63,
-63,
-64,
-64,
-65,
-66,
-65,
-66,
-69,
-68,
-69,
-71,
-72,
-72,
-73,
-72,
-73,
-72,
-75,
-74,
-75,
-75,
-76,
-76,
-75,
-79,
-78,
-81,
-79,
-80,
-81,
-81,
-82,
-82,
-81,
-84,
-85,
-84,
-84,
-84,
-85,
-85,
-87,
-87,
-86,
-87,
-87,
-88,
-88,
-89,
-90,
-89,
-91,
-91,
-91,
-91,
-91,
-92,
-91,
-92,
-92,
-92,
-91,
-92,
-94,
-94,
-93,
-92,
-93,
-92,
-93,
-94,
-93,
-93,
-92,
-93,
-92,
-92,
-91,
-91,
-89,
-91,
-89,
-88,
-88,
-87,
-87,
-86,
-85,
-86,
-85,
-84,
-84,
-82,
-81,
-81,
-78,
-78,
-77,
-76,
-74,
-73,
-74,
-72,
-71,
-69,
-69,
-69,
-69,
-66,
-65,
-65,
-64,
-63,
-62,
-59,
-59,
-59,
-59,
-56,
-54,
-54,
-55,
-52,
-52,
-52,
-50,
-50,
-49,
-46,
-46,
-47,
-44,
-45,
-43,
-42,
-43,
-43,
-41,
-40,
-40,
-39,
-38,
-38,
-37,
-36,
-35,
-36,
-35,
-35,
-33,
-34,
-32,
-29,
-32,
-30,
-29,
-30,
-27,
-28,
-27,
-25,
-27,
-25,
-26,
-25,
-24,
-25,
-24,
-22,
-21,
-21,
-21,
-21,
-19,
-19,
-19,
-19,
-16,
-17,
-18,
-19,
-17,
-17,
-15,
-15,
-16,
-14,
-14,
-13,
-13,
-13,
-12,
-13,
-13,
-12,
-11,
-9,
-10,
-9,
-9,
-9,
-10,
-7,
-8,
-9,
-8,
-7,
-8,
-6,
-6,
-5,
-5,
-6,
-4,
-4,
-4,
-5,
-3,
-3,
-3,
-4,
-4,
-3,
-2,
-2,
-1,
-2,
-2,
0,
1,
-1,
1,
0,
1,
0,
2,
0,
2,
0,
0,
2,
0,
2,
2,
2,
3,
4,
3,
3,
4,
4,
3,
4,
4,
5,
5,
4,
6,
8,
6,
6,
7,
5,
8,
7,
5,
7,
8,
8,
8,
6,
8,
7,
8,
8,
6,
8,
8,
7,
9,
8,
9,
8,
8,
10,
10,
8,
8,
9,
9,
9,
10,
10,
11,
10,
8,
10,
12,
11,
10,
13,
10,
11,
10,
11,
10,
12,
12,
10,
11,
11,
12,
12,
10,
12,
11,
12,
12,
12,
14,
13,
13,
13,
13,
13,
13,
12,
12,
13,
13,
13,
13,
15,
14,
14,
14,
14,
14,
13,
12,
15,
15,
15,
14,
15,
14,
15,
15,
15,
15,
14,
17,
16,
16,
17,
15,
16,
17,
16,
17,
17,
18,
18,
18,
18,
18,
16,
18,
17,
19,
18,
19,
20,
18,
19,
20,
19,
20,
18,
19,
20,
20,
20,
20,
20,
19,
22,
20,
20,
22,
21,
21,
20,
21,
22,
21,
22,
23,
23,
24,
23,
24,
24,
23,
23,
25,
24,
25,
25,
23,
27,
26,
25,
26,
26,
26,
27,
26,
29,
28,
29,
27,
29,
29,
29,
30,
31,
30,
30,
32,
30,
32,
31,
31,
33,
33,
33,
32,
35,
35,
34,
35,
36,
36,
35,
36,
35,
37,
36,
36,
38,
38,
38,
38,
40,
39,
40,
40,
41,
40,
40,
42,
43,
42,
43,
45,
44,
46,
45,
44,
46,
46,
47,
48,
49,
48,
48,
48,
49,
51,
51,
51,
53,
53,
51,
54,
52,
56,
55,
54,
55,
56,
56,
57,
57,
57,
61,
60,
61,
61,
63,
63,
63,
65,
66,
65,
67,
65,
67,
68,
69,
69,
68,
71,
72,
72,
72,
72,
74,
74,
73,
75,
76,
76,
77,
79,
77,
78,
80,
80,
81,
81,
82,
82,
82,
81,
83,
83,
86,
86,
85,
87,
85,
85,
87,
88,
87,
87,
88,
89,
88,
89,
89,
91,
91,
92,
91,
91,
92,
91,
93,
93,
93,
93,
92,
92,
92,
93,
93,
91,
93,
92,
92,
93,
91,
91,
91,
91,
91,
88,
87,
90,
88,
88,
88,
86,
86,
84,
83,
83,
82,
81,
80,
79,
79,
79,
78,
76,
74,
75,
72,
72,
72,
71,
69,
68,
66,
66,
66,
64,
64,
63,
63,
61,
59,
59,
58,
56,
55,
55,
52,
51,
52,
51,
51,
48,
47,
45,
47,
44,
46,
43,
44,
45,
42,
42,
41,
39,
40,
40,
37,
38,
37,
35,
34,
35,
33,
35,
31,
31,
31,
30,
28,
28,
28,
28,
28,
27,
28,
28,
25,
24,
24,
23,
21,
23,
21,
22,
21,
20,
19,
20,
18,
18,
18,
18,
17,
18,
17,
17,
17,
16,
13,
16,
14,
13,
12,
13,
13,
12,
12,
11,
11,
10,
9,
10,
10,
11,
9,
10,
8,
6,
9,
7,
6,
5,
7,
6,
6,
7,
4,
3,
4,
3,
4,
3,
4,
3,
3,
1,
3,
0,
3,
1,
3,
1,
1,
0,
1,
0,
-1,
-1,
-1,
-2,
-1,
-1,
-2,
-3,
-2,
-3,
-5,
-4,
-4,
-4,
-3,
-3,
-4,
-4,
-5,
-5,
-3,
-5,
-5,
-7,
-5,
-8,
-7,
-8,
-6,
-8,
-8,
-7,
-8,
-6,
-7,
-9,
-10,
-8,
-7,
-9,
-8,
-8,
-10,
-9,
-9,
-9,
-9,
-9,
-10,
-10,
-11,
-10,
-9,
-10,
-11,
-10,
-11,
-12,
-11,
-11,
-12,
-12,
-10,
-9,
-12,
-11,
-12,
-12,
-13,
-13,
-12,
-11,
-12,
-12,
-13,
-12,
-12,
-12,
-12,
-12,
-13,
-13,
-14,
-13,
-12,
-13,
-13,
-14,
-14,
-15,
-14,
-14,
-15,
-14,
-14,
-14,
-14,
-13,
-15,
-15,
-15,
-14,
-14,
-15,
-14,
-14,
-16,
-14,
-15,
-17,
-16,
-16,
-16,
-16,
-17,
-15,
-18,
-17,
-17,
-18,
-17,
-17,
-18,
-18,
-17,
-17,
-18,
-17,
-17,
-18,
-19,
-18,
-17,
-16,
-21,
-18,
-19,
-20,
-19,
-18,
-19,
-20,
-20,
-20,
-20,
-21,
-21,
-21,
-21,
-22,
-21,
-22,
-21,
-22,
-21,
-24,
-24,
-22,
-22,
-24,
-23,
-22,
-23,
-24,
-23,
-22,
-23,
-24,
-26,
-27,
-25,
-25,
-25,
-25,
-25,
-26,
-25,
-26,
-26,
-27,
-28,
-27,
-28,
-28,
-27,
-27,
-28,
-28,
-29,
-29,
-29,
-30,
-29,
-32,
-31,
-32,
-31,
-32,
-31,
-33,
-31,
-33,
-35,
-33,
-34,
-34,
-35,
-35,
-35,
-35,
-35,
-35,
-36,
-38,
-39,
-37,
-38,
-38,
-38,
-37,
-39,
-40,
-40,
-41,
-40,
-42,
-41,
-42,
-43,
-42,
-43,
-44,
-44,
-44,
-44,
-45,
-46,
-47,
-47,
-47,
-47,
-49,
-48,
-50,
-49,
-51,
-49,
-51,
-52,
-53,
-52,
-51,
-53,
-55,
-53,
-54,
-55,
-55,
-57,
-59,
-58,
-57,
-57,
-59,
-60,
-61,
-61,
-62,
-62,
-62,
-63,
-65,
-65,
-66,
-65,
-66,
-67,
-67,
-69,
-70,
-70,
-71,
-69,
-71,
-71,
-74,
-75,
-76,
-73,
-73,
-75,
-76,
-77,
-77,
-78,
-78,
-80,
-79,
-78,
-81,
-80,
-80,
-82,
-83,
-84,
-83,
-84,
-85,
-85,
-85,
-85,
-86,
-85,
-86,
-88,
-88,
-88,
-89,
-91,
-89,
-90,
-91,
-92,
-90,
-92,
-92,
-92,
-93,
-91,
-93,
-93,
-93,
-93,
-93,
-94,
-93,
-94,
-92,
-94,
-93,
-93,
-93,
-93,
-94,
-93,
-92,
-91,
-92,
-90,
-90,
-90,
-91,
-90,
-88,
-89,
-86,
-86,
-86,
-85,
-86,
-85,
-83,
-83,
-82,
-82,
-80,
-80,
-78,
-78,
-76,
-76,
-75,
-74,
-74,
-71,
-70,
-71,
-68,
-68,
-65,
-65,
-65,
-63,
-63,
-60,
-61,
-61,
-59,
-59,
-57,
-54,
-55,
-53,
-53,
-52,
-52,
-51,
-51,
-47,
-48,
-46,
-47,
-46,
-45,
-45,
-43,
-43,
-41,
-42,
-41,
-40,
-40,
-39,
-37,
-38,
-36,
-36,
-33,
-35,
-33,
-32,
-33,
-32,
-31,
-30,
-29,
-31,
-26,
-27,
-28,
-27,
-24,
-27,
-25,
-23,
-24,
-24,
-22,
-23,
-22,
-20,
-21,
-21,
-19,
-21,
-19,
-20,
-17,
-17,
-17,
-16,
-18,
-16,
-17,
-14,
-14,
-15,
-15,
-13,
-13,
-14,
-14,
-13,
-11,
-14,
-11,
-11,
-12,
-10,
-11,
-10,
-11,
-9,
-10,
-8,
-9,
-8,
-7,
-7,
-8,
-8,
-8,
-7,
-5,
-5,
-6,
-4,
-5,
-5,
-3,
-4,
-5,
-4,
-3,
-3,
-3,
-2,
-2,
-1,
-1,
0,
-2,
0,
-1,
1,
0,
-1,
0,
0,
2,
3,
1,
3,
2,
2,
2,
2,
3,
4,
3,
4,
2,
3,
4,
5,
6,
5,
5,
4,
7,
5,
5,
5,
7,
6,
8,
7,
5,
6,
7,
7,
8,
8,
8,
7,
8,
7,
7,
8,
7,
9,
7,
8,
8,
8,
9,
10,
9,
11,
10,
10,
10,
11,
9,
10,
11,
9,
9,
11,
10,
10,
11,
11,
10,
11,
10,
11,
10,
12,
13,
12,
12,
11,
13,
11,
13,
12,
13,
11,
11,
13,
14,
12,
12,
13,
13,
13,
12,
12,
12,
13,
13,
14,
13,
14,
14,
14,
13,
13,
14,
14,
14,
15,
15,
15,
15,
15,
16,
15,
16,
15,
14,
17,
16,
17,
17,
17,
16,
17,
17,
17,
18,
17,
16,
18,
17,
17,
16,
18,
18,
18,
19,
20,
20,
19,
19,
19,
19,
20,
19,
20,
20,
19,
19,
20,
22,
20,
21,
22,
21,
20,
22,
22,
22,
22,
24,
22,
21,
23,
24,
22,
23,
24,
23,
24,
23,
23,
25,
26,
25,
24,
24,
26,
25,
27,
26,
28,
26,
27,
28,
27,
29,
29,
30,
29,
29,
29,
30,
31,
31,
30,
30,
32,
33,
32,
31,
34,
33,
33,
32,
34,
32,
33,
36,
35,
35,
35,
37,
38,
37,
37,
38,
38,
38,
39,
40,
40,
42,
41,
41,
42,
42,
43,
41,
44,
43,
44,
45,
46,
46,
46,
45,
48,
48,
46,
48,
48,
49,
49,
51,
51,
51,
52,
53,
53,
54,
53,
54,
55,
55,
55,
55,
57,
58,
57,
59,
59,
61,
63,
61,
61,
63,
63,
62,
64,
66,
66,
66,
68,
67,
67,
69,
69,
69,
70,
70,
71,
72,
72,
75,
75,
74,
76,
75,
76,
77,
78,
77,
78,
79,
80,
79,
80,
79,
81,
82,
83,
83,
84,
85,
85,
86,
88,
86,
85,
85,
88,
87,
89,
89,
91,
89,
90,
89,
90,
91,
92,
90,
92,
92,
91,
92,
94,
93,
92,
92,
92,
92,
93,
91,
92,
91,
91,
91,
91,
91,
92,
91,
90,
90,
91,
88,
87,
87,
87,
87,
86,
84,
84,
84,
82,
81,
82,
80,
80,
79,
78,
77,
76,
74,
75,
72,
73,
72,
71,
70,
69,
67,
67,
64,
63,
64,
62,
61,
61,
59,
58,
57,
56,
56,
55,
53,
53,
52,
50,
50,
49,
49,
48,
46,
47,
44,
43,
45,
43,
42,
42,
40,
40,
39,
38,
39,
35,
36,
34,
35,
34,
35,
31,
31,
31,
33,
31,
29,
28,
28,
27,
27,
26,
25,
25,
24,
26,
23,
22,
23,
22,
21,
19,
21,
21,
20,
17,
18,
18,
18,
17,
17,
17,
17,
15,
15,
16,
17,
15,
14,
15,
12,
12,
13,
13,
13,
11,
11,
11,
10,
10,
9,
10,
10,
9,
8,
6,
9,
8,
7,
6,
6,
5,
5,
4,
4,
4,
4,
4,
4,
3,
2,
2,
4,
2,
3,
1,
1,
2,
1,
0,
0,
0,
0,
-1,
-1,
-1,
-2,
-1,
-1,
-1,
-3,
-1,
-3,
-3,
-2,
-4,
-3,
-3,
-5,
-5,
-4,
-3,
-5,
-3,
-7,
-4,
-7,
-5,
-6,
-7,
-8,
-7,
-7,
-8,
-7,
-8,
-8,
-7,
-8,
-8,
-8,
-8,
-9,
-9,
-8,
-8,
-10,
-9,
-10,
-8,
-9,
-10,
-9,
-8,
-11,
-9,
-9,
-11,
-11,
-12,
-10,
-11,
-12,
-12,
-10,
-12,
-12,
-13,
-12,
-11,
-13,
-12,
-11,
-12,
-12,
-13,
-11,
-13,
-11,
-12,
-14,
-13,
-14,
-14,
-13,
-13,
-14,
-14,
-13,
-12,
-14,
-14,
-14,
-13,
-14,
-15,
-14,
-15,
-13,
-16,
-13,
-15,
-17,
-16,
-16,
-15,
-15,
-15,
-14,
-16,
-15,
-16,
-15,
-16,
-17,
-17,
-16,
-16,
-17,
-16,
-17,
-16,
-16,
-18,
-16,
-17,
-18,
-17,
-17,
-16,
-19,
-18,
-19,
-19,
-19,
-18,
-18,
-19,
-19,
-18,
-20,
-20,
-18,
-19,
-21,
-20,
-20,
-20,
-22,
-21,
-21,
-20,
-21,
-21,
-22,
-22,
-21,
-21,
-22,
-22,
-24,
-21,
-22,
-24,
-21,
-23,
-23,
-24,
-22,
-25,
-24,
-24,
-23,
-24,
-24,
-24,
-24,
-25,
-26,
-26,
-27,
-25,
-26,
-27,
-27,
-27,
-28,
-29,
-28,
-29,
-28,
-29,
-28,
-29,
-29,
-29,
-29,
-30,
-33,
-32,
-30,
-33,
-33,
-33,
-34,
-33,
-32,
-34,
-34,
-35,
-36,
-35,
-35,
-35,
-36,
-36,
-35,
-38,
-38,
-37,
-39,
-38,
-39,
-38,
-39,
-40,
-42,
-40,
-42,
-41,
-43,
-43,
-43,
-43,
-43,
-43,
-44,
-46,
-46,
-45,
-47,
-46,
-47,
-47,
-48,
-49,
-49,
-51,
-51,
-51,
-50,
-51,
-51,
-51,
-54,
-53,
-53,
-54,
-55,
-56,
-54,
-56,
-57,
-57,
-60,
-57,
-59,
-61,
-60,
-61,
-62,
-61,
-63,
-62,
-65,
-64,
-65,
-65,
-65,
-66,
-66,
-67,
-70,
-71,
-69,
-72,
-71,
-72,
-73,
-73,
-73,
-73,
-74,
-75,
-76,
-76,
-78,
-77,
-78,
-79,
-79,
-81,
-81,
-79,
-80,
-80,
-83,
-82,
-82,
-83,
-85,
-86,
-85,
-85,
-86,
-86,
-88,
-86,
-87,
-88,
-89,
-89,
-90,
-89,
-90,
-91,
-90,
-91,
-91,
-91,
-92,
-92,
-93,
-93,
-93,
-93,
-93,
-93,
-94,
-93,
-92,
-93,
-92,
-93,
-93,
-93,
-91,
-93,
-92,
-91,
-91,
-91,
-91,
-91,
-89,
-87,
-87,
-90,
-87,
-86,
-86,
-85,
-83,
-84,
-84,
-83,
-83,
-82,
-80,
-79,
-78,
-78,
-76,
-76,
-75,
-74,
-73,
-73,
-71,
-70,
-70,
-67,
-68,
-66,
-65,
-63,
-63,
-62,
-61,
-61,
-58,
-58,
-58,
-56,
-55,
-54,
-52,
-53,
-51,
-53,
-50,
-49,
-47,
-47,
-47,
-46,
-45,
-45,
-45,
-42,
-41,
-41,
-41,
-40,
-39,
-39,
-37,
-37,
-36,
-35,
-35,
-34,
-33,
-33,
-32,
-33,
-30,
-29,
-30,
-29,
-28,
-28,
-28,
-27,
-25,
-25,
-26,
-24,
-24,
-25,
-23,
-23,
-23,
-23,
-21,
-21,
-19,
-20,
-19,
-18,
-19,
-18,
-18,
-17,
-17,
-17,
-16,
-18,
-15,
-15,
-14,
-14,
-13,
-15,
-13,
-14,
-13,
-11,
-12,
-12,
-11,
-11,
-11,
-10,
-10,
-9,
-9,
-8,
-9,
-9,
-8,
-6,
-8,
-6,
-7,
-6,
-6,
-6,
-4,
-5,
-3,
-4,
-5,
-5,
-5,
-3,
-1,
-3,
-3,
-3,
-1,
-1,
0,
0,
0,
0,
-1,
1,
-1,
1,
0,
0,
1,
2,
2,
2,
2,
3,
1,
4,
2,
4,
3,
3,
5,
3,
5,
5,
3,
4,
5,
5,
4,
5,
5,
6,
7,
7,
6,
6,
5,
7,
8,
8,
6,
6,
7,
7,
8,
7,
8,
9,
8,
9,
8,
9,
10,
7,
11,
10,
10,
9,
8,
10,
9,
9,
10,
10,
8,
11,
10,
9,
11,
12,
11,
10,
10,
10,
10,
11,
10,
11,
11,
10,
11,
12,
12,
11,
11,
13,
11,
11,
12,
13,
13,
13,
14,
15,
12,
13,
13,
13,
13,
15,
12,
14,
13,
13,
14,
13,
15,
13,
14,
14,
14,
14,
14,
15,
14,
14,
16,
15,
15,
16,
16,
14,
17,
16,
16,
16,
16,
17,
16,
17,
17,
16,
17,
15,
16,
16,
18,
17,
18,
17,
18,
18,
19,
18,
19,
18,
18,
18,
19,
20,
19,
19,
19,
20,
21,
20,
21,
21,
22,
23,
21,
20,
21,
21,
23,
23,
23,
22,
23,
23,
23,
23,
23,
24,
24,
24,
25,
26,
26,
26,
27,
26,
28,
26,
26,
25,
28,
28,
27,
29,
27,
28,
29,
29,
28,
30,
29,
31,
30,
29,
31,
30,
31,
34,
34,
33,
33,
33,
34,
34,
33,
33,
34,
35,
35,
35,
36,
37,
37,
37,
37,
38,
40,
39,
38,
38,
39,
41,
40,
41,
42,
43,
43,
43,
42,
44,
44,
44,
45,
45,
46,
45,
46,
46,
47,
49,
48,
50,
50,
51,
50,
50,
52,
53,
51,
54,
53,
55,
55,
55,
56,
56,
58,
57,
60,
60,
59,
60,
61,
61,
61,
63,
62,
63,
65,
66,
65,
65,
66,
67,
67,
69,
69,
70,
71,
72,
71,
73,
74,
73,
73,
74,
76,
76,
77,
77,
77,
78,
79,
79,
80,
81,
80,
81,
81,
83,
84,
82,
84,
83,
84,
84,
85,
87,
85,
87,
88,
88,
89,
88,
90,
90,
92,
89,
90,
90,
90,
89,
91,
92,
92,
91,
91,
91,
91,
92,
93,
91,
92,
91,
92,
91,
90,
92,
89,
91,
90,
90,
88,
89,
90,
88,
87,
87,
86,
86,
86,
85,
82,
83,
83,
82,
81,
80,
79,
75,
77,
76,
75,
75,
74,
72,
70,
69,
69,
67,
68,
67,
64,
65,
64,
61,
63,
62,
59,
58,
56,
57,
56,
55,
54,
53,
52,
52,
50,
50,
48,
47,
48,
46,
47,
43,
45,
42,
42,
42,
42,
40,
40,
38,
39,
37,
36,
36,
37,
34,
36,
32,
32,
31,
33,
30,
29,
28,
28,
27,
27,
27,
27,
25,
25,
23,
24,
24,
24,
22,
21,
21,
20,
20,
19,
20,
19,
19,
17,
17,
17,
16,
16,
17,
16,
15,
15,
15,
14,
15,
13,
13,
13,
13,
12,
10,
10,
10,
10,
9,
10,
9,
9,
9,
9,
8,
8,
8,
8,
7,
8,
5,
7,
6,
7,
4,
4,
4,
5,
3,
4,
3,
3,
3,
2,
2,
1,
1,
1,
1,
-1,
0,
0,
1,
-1,
0,
-1,
-1,
-2,
-3,
-1,
-2,
-3,
-3,
-3,
-2,
-5,
-5,
-3,
-5,
-5,
-5,
-6,
-4,
-5,
-5,
-6,
-4,
-6,
-7,
-7,
-7,
-7,
-6,
-7,
-7,
-7,
-8,
-6,
-7,
-8,
-8,
-8,
-8,
-7,
-9,
-8,
-8,
-9,
-9,
-10,
-9,
-11,
-9,
-9,
-11,
-9,
-9,
-11,
-11,
-11,
-10,
-10,
-11,
-11,
-10,
-12,
-12,
-11,
-12,
-11,
-10,
-13,
-12,
-12,
-12,
-13,
-13,
-12,
-13,
-12,
-13,
-12,
-12,
-12,
-13,
-13,
-12,
-12,
-14,
-13,
-13,
-14,
-14,
-13,
-15,
-15,
-15,
-14,
-14,
-14,
-13,
-14,
-14,
-15,
-15,
-13,
-15,
-14,
-15,
-15,
-16,
-14,
-16,
-16,
-16,
-16,
-15,
-15,
-17,
-15,
-17,
-17,
-16,
-17,
-16,
-18,
-17,
-18,
-18,
-18,
-18,
-19,
-19,
-18,
-19,
-19,
-19,
-18,
-20,
-20,
-18,
-20,
-19,
-19,
-20,
-20,
-21,
-19,
-21,
-20,
-22,
-20,
-22,
-21,
-22,
-23,
-21,
-22,
-21,
-24,
-23,
-23,
-23,
-24,
-22,
-23,
-22,
-24,
-26,
-23,
-26,
-24,
-24,
-25,
-24,
-25,
-23,
-24,
-27,
-27,
-26,
-27,
-26,
-27,
-27,
-27,
-29,
-27,
-29,
-29,
-30,
-31,
-30,
-28,
-30,
-29,
-29,
-32,
-32,
-33,
-32,
-32,
-30,
-35,
-33,
-34,
-33,
-35,
-33,
-33,
-35,
-35,
-35,
-34,
-36,
-37,
-37,
-38,
-37,
-37,
-39,
-37,
-38,
-41,
-40,
-39,
-40,
-40,
-42,
-40,
-41,
-43,
-42,
-42,
-44,
-44,
-44,
-44,
-45,
-45,
-45,
-46,
-47,
-47,
-48,
-48,
-50,
-50,
-51,
-51,
-51,
-53,
-52,
-51,
-52,
-51,
-54,
-56,
-55,
-55,
-56,
-56,
-56,
-58,
-59,
-59,
-60,
-61,
-60,
-60,
-61,
-62,
-63,
-62,
-63,
-65,
-65,
-68,
-66,
-66,
-67,
-68,
-68,
-69,
-71,
-71,
-72,
-73,
-72,
-72,
-74,
-75,
-75,
-76,
-77,
-77,
-77,
-78,
-80,
-78,
-81,
-80,
-80,
-82,
-82,
-82,
-84,
-83,
-84,
-83,
-85,
-85,
-86,
-87,
-87,
-86,
-87,
-90,
-89,
-89,
-88,
-89,
-91,
-92,
-91,
-92,
-93,
-91,
-93,
-94,
-93,
-92,
-93,
-93,
-94,
-94,
-94,
-92,
-94,
-94,
-93,
-95,
-94,
-93,
-93,
-93,
-93,
-93,
-93,
-92,
-93,
-93,
-91,
-90,
-90,
-90,
-89,
-87,
-88,
-87,
-86,
-85,
-85,
-85,
-84,
-82,
-83,
-81,
-79,
-80,
-78,
-78,
-76,
-76,
-75,
-74,
-72,
-71,
-70,
-68,
-68,
-68,
-65,
-65,
-65,
-63,
-62,
-62,
-60,
-59,
-59,
-58,
-57,
-55,
-55,
-53,
-54,
-52,
-49,
-51,
-49,
-48,
-49,
-47,
-45,
-45,
-45,
-42,
-43,
-41,
-41,
-40,
-41,
-39,
-38,
-39,
-38,
-37,
-37,
-35,
-35,
-33,
-33,
-33,
-33,
-32,
-32,
-31,
-32,
-29,
-28,
-28,
-28,
-27,
-24,
-26,
-24,
-24,
-25,
-23,
-23,
-22,
-23,
-22,
-21,
-21,
-19,
-20,
-19,
-19,
-18,
-17,
-18,
-17,
-17,
-16,
-16,
-16,
-15,
-15,
-14,
-14,
-13,
-13,
-13,
-14,
-12,
-13,
-11,
-10,
-11,
-9,
-11,
-11,
-11,
-9,
-10,
-7,
-9,
-7,
-8,
-8,
-8,
-9,
-7,
-6,
-6,
-5,
-4,
-4,
-4,
-4,
-4,
-4,
-3,
-4,
-2,
-1,
-2,
-1,
-1,
-2,
-1,
-1,
-1,
0,
0,
-1,
0,
0,
1,
2,
2,
1,
2,
3,
2,
3,
3,
2,
3,
3,
5,
3,
3,
5,
5,
4,
5,
4,
5,
5,
4,
4,
5,
8,
8,
6,
5,
5,
7,
6,
8,
8,
7,
7,
8,
8,
8,
7,
8,
9,
8,
8,
9,
10,
10,
11,
9,
10,
9,
10,
8,
10,
9,
10,
10,
11,
10,
10,
9,
11,
10,
10,
12,
10,
11,
11,
11,
12,
11,
11,
11,
11,
11,
12,
12,
13,
13,
13,
11,
12,
13,
12,
14,
12,
14,
12,
14,
12,
13,
14,
14,
12,
12,
15,
14,
13,
13,
14,
14,
13,
14,
15,
13,
14,
14,
14,
14,
14,
15,
15,
16,
16,
15,
17,
15,
17,
17,
16,
16,
15,
16,
18,
17,
17,
17,
17,
17,
19,
17,
17,
19,
18,
19,
18,
19,
19,
17,
19,
20,
19,
19,
19,
19,
20,
20,
18,
20,
20,
19,
24,
20,
22,
22,
22,
23,
23,
21,
22,
22,
23,
23,
24,
24,
22,
24,
25,
23,
24,
24,
24,
25,
26,
27,
27,
27,
27,
27,
27,
29,
29,
28,
29,
28,
27,
29,
29,
28,
30,
30,
30,
31,
30,
31,
31,
31,
33,
31,
33,
32,
32,
34,
35,
34,
32,
34,
36,
35,
37,
37,
38,
38,
37,
38,
38,
39,
39,
38,
39,
41,
41,
42,
41,
43,
42,
43,
43,
44,
44,
46,
45,
45,
45,
47,
47,
49,
48,
49,
50,
50,
50,
49,
51,
50,
51,
53,
52,
53,
54,
54,
55,
55,
54,
56,
56,
58,
59,
59,
60,
61,
61,
63,
62,
63,
64,
63,
66,
66,
66,
66,
68,
67,
67,
69,
69,
70,
70,
74,
73,
71,
74,
75,
74,
75,
76,
77,
78,
76,
78,
79,
77,
78,
79,
80,
81,
81,
81,
82,
83,
84,
82,
85,
85,
85,
87,
87,
87,
86,
88,
87,
90,
88,
88,
90,
89,
90,
89,
91,
92,
92,
92,
92,
92,
89,
91,
92,
91,
93,
93,
92,
93,
93,
92,
91,
92,
92,
92,
92,
90,
92,
91,
90,
88,
90,
87,
88,
87,
86,
86,
85,
84,
83,
84,
81,
81,
80,
79,
78,
78,
77,
76,
75,
74,
73,
71,
71,
70,
70,
69,
67,
66,
65,
64,
61,
63,
61,
59,
59,
59,
57,
56,
55,
56,
54,
55,
51,
51,
49,
48,
46,
46,
47,
45,
46,
45,
44,
43,
40,
40,
40,
39,
41,
39,
36,
35,
36,
34,
35,
32,
34,
32,
31,
30,
31,
31,
29,
29,
29,
28,
26,
26,
27,
24,
25,
25,
24,
22,
22,
21,
21,
21,
21,
21,
21,
19,
20,
18,
17,
17,
19,
17,
16,
17,
15,
15,
14,
14,
15,
12,
12,
11,
11,
11,
12,
11,
11,
11,
11,
10,
9,
9,
10,
8,
10,
8,
7,
6,
6,
7,
7,
6,
4,
5,
4,
5,
3,
1,
3,
3,
3,
3,
3,
1,
2,
0,
2,
1,
1,
1,
-1,
-1,
0,
0,
-1,
-2,
-2,
-1,
-2,
-3,
-3,
-3,
-3,
-4,
-3,
-4,
-3,
-3,
-5,
-5,
-4,
-6,
-5,
-5,
-6,
-7,
-3,
-5,
-5,
-7,
-8,
-7,
-6,
-9,
-9,
-6,
-7,
-6,
-8,
-7,
-9,
-7,
-7,
-8,
-9,
-8,
-8,
-8,
-9,
-10,
-10,
-10,
-9,
-10,
-11,
-9,
-11,
-10,
-10,
-10,
-12,
-12,
-12,
-10,
-13,
-13,
-10,
-11,
-12,
-11,
-11,
-12,
-12,
-13,
-14,
-12,
-12,
-12,
-13,
-13,
-14,
-14,
-12,
-12,
-11,
-13,
-15,
-14,
-14,
-13,
-13,
-13,
-15,
-14,
-13,
-15,
-14,
-13,
-14,
-14,
-15,
-13,
-15,
-15,
-16,
-14,
-15,
-15,
-16,
-16,
-15,
-16,
-16,
-17,
-15,
-15,
-15,
-17,
-16,
-16,
-17,
-16,
-17,
-17,
-16,
-17,
-18,
-17,
-16,
-18,
-18,
-18,
-17,
-18,
-19,
-20,
-20,
-19,
-19,
-20,
-20,
-19,
-21,
-19,
-19,
-20,
-19,
-19,
-21,
-21,
-19,
-21,
-20,
-22,
-20,
-21,
-22,
-22,
-23,
-21,
-23,
-23,
-22,
-24,
-23,
-24,
-23,
-23,
-23,
-21,
-24,
-24,
-24,
-24,
-26,
-25,
-26,
-27,
-25,
-27,
-25,
-27,
-27,
-27,
-30,
-27,
-28,
-29,
-29,
-28,
-30,
-27,
-28,
-30,
-30,
-31,
-28,
-29,
-30,
-32,
-30,
-30,
-31,
-34,
-33,
-32,
-34,
-34,
-34,
-35,
-35,
-35,
-35,
-37,
-36,
-35,
-36,
-36,
-37,
-37,
-38,
-39,
-40,
-38,
-40,
-41,
-41,
-42,
-40,
-41,
-41,
-43,
-41,
-43,
-43,
-44,
-44,
-45,
-45,
-45,
-46,
-46,
-46,
-47,
-49,
-50,
-48,
-49,
-49,
-50,
-51,
-51,
-51,
-52,
-51,
-51,
-53,
-54,
-54,
-54,
-56,
-55,
-58,
-57,
-59,
-58,
-58,
-60,
-58,
-62,
-61,
-63,
-63,
-63,
-62,
-64,
-64,
-65,
-66,
-66,
-67,
-67,
-69,
-69,
-69,
-70,
-71,
-71,
-73,
-73,
-73,
-76,
-73,
-75,
-76,
-77,
-77,
-79,
-78,
-78,
-79,
-81,
-80,
