1_/ALL0000/A0000CH2.CSV

Memory Length,5000,
Trigger Level,0.000E+00,
Source,CH2,
Vertical Units,V,
Vertical Scale,5.000E-01,
Vertical Position,0.000E+00,
Horizontal Units,s,
Horizontal Scale,5.000E-03,
Horizontal Position,0,
Horizontal Mode,XY Mode,
Sampling Period,2.000E-04,
Firmware,V1.11,
Time,22-Sep-14 23:52,
Waveform Data,
-72,
-73,
-71,
-71,
-72,
-71,
-70,
-71,
-71,
-71,
-69,
-71,
-71,
-70,
-70,
-70,
-67,
-69,
-69,
-71,
-69,
-68,
-68,
-68,
-68,
-67,
-69,
-69,
-67,
-66,
-67,
-68,
-66,
-68,
-66,
-68,
-67,
-66,
-66,
-65,
-66,
-65,
-66,
-65,
-64,
-65,
-64,
-64,
-63,
-65,
-63,
-63,
-63,
-62,
-64,
-61,
-61,
-63,
-63,
-60,
-59,
-60,
-60,
-62,
-58,
-59,
-60,
-60,
-58,
-61,
-58,
-57,
-58,
-59,
-56,
-57,
-56,
-56,
-55,
-55,
-55,
-55,
-54,
-54,
-55,
-53,
-53,
-55,
-52,
-52,
-51,
-51,
-50,
-49,
-50,
-49,
-49,
-51,
-49,
-48,
-49,
-48,
-49,
-47,
-47,
-48,
-47,
-46,
-45,
-48,
-45,
-45,
-44,
-44,
-44,
-42,
-44,
-43,
-42,
-41,
-42,
-40,
-41,
-40,
-39,
-39,
-38,
-40,
-40,
-37,
-38,
-34,
-36,
-36,
-35,
-34,
-35,
-34,
-34,
-32,
-32,
-32,
-32,
-33,
-31,
-31,
-31,
-31,
-31,
-29,
-25,
-29,
-28,
-27,
-28,
-28,
-26,
-24,
-24,
-25,
-23,
-23,
-23,
-21,
-22,
-23,
-20,
-21,
-18,
-19,
-19,
-18,
-17,
-18,
-16,
-18,
-16,
-15,
-15,
-13,
-15,
-15,
-14,
-11,
-11,
-12,
-13,
-10,
-10,
-11,
-9,
-11,
-9,
-9,
-9,
-7,
-8,
-6,
-7,
-5,
-5,
-2,
-2,
-2,
-2,
-1,
-2,
-2,
-2,
1,
-1,
1,
1,
2,
1,
0,
3,
6,
4,
2,
5,
4,
5,
7,
6,
7,
6,
7,
7,
10,
9,
9,
7,
11,
10,
12,
13,
13,
12,
13,
14,
15,
16,
16,
16,
17,
15,
17,
17,
18,
19,
18,
19,
20,
20,
22,
22,
23,
21,
23,
25,
24,
24,
24,
24,
26,
25,
28,
28,
28,
27,
27,
28,
28,
29,
30,
29,
30,
32,
31,
30,
32,
33,
34,
34,
35,
35,
36,
33,
36,
36,
38,
38,
38,
39,
37,
38,
38,
38,
41,
42,
40,
41,
44,
43,
45,
41,
44,
45,
44,
43,
47,
46,
48,
45,
47,
48,
47,
48,
47,
51,
50,
49,
51,
51,
52,
50,
53,
52,
53,
53,
52,
53,
53,
52,
54,
54,
56,
57,
56,
56,
57,
57,
58,
58,
59,
57,
58,
59,
60,
60,
60,
59,
61,
60,
62,
60,
62,
62,
62,
62,
64,
64,
63,
62,
63,
64,
64,
65,
65,
66,
65,
65,
66,
65,
65,
66,
68,
66,
68,
67,
69,
68,
69,
69,
69,
69,
70,
68,
69,
70,
69,
69,
68,
71,
70,
71,
70,
70,
70,
70,
71,
71,
71,
72,
71,
73,
71,
73,
73,
73,
72,
73,
73,
75,
74,
74,
71,
73,
74,
76,
74,
75,
73,
74,
75,
74,
74,
73,
75,
76,
74,
75,
73,
76,
77,
76,
74,
74,
73,
74,
74,
76,
76,
74,
74,
75,
75,
77,
75,
77,
76,
73,
77,
77,
75,
78,
75,
76,
75,
75,
76,
76,
77,
77,
77,
77,
74,
76,
74,
74,
76,
73,
75,
76,
77,
75,
75,
78,
74,
75,
75,
77,
76,
73,
77,
75,
74,
75,
73,
76,
73,
73,
75,
75,
73,
74,
73,
74,
75,
72,
74,
72,
75,
73,
73,
73,
74,
71,
73,
74,
71,
71,
74,
71,
71,
73,
70,
73,
70,
71,
70,
73,
71,
71,
70,
70,
70,
69,
68,
70,
67,
69,
69,
69,
70,
69,
69,
69,
69,
70,
68,
67,
66,
65,
67,
68,
65,
65,
66,
65,
65,
65,
64,
65,
64,
65,
65,
63,
65,
63,
63,
63,
64,
63,
61,
61,
61,
62,
61,
59,
61,
59,
60,
59,
60,
59,
59,
54,
57,
57,
57,
54,
58,
56,
55,
56,
54,
56,
54,
54,
54,
52,
53,
54,
52,
53,
52,
52,
50,
50,
49,
49,
50,
51,
51,
51,
49,
48,
46,
46,
46,
46,
45,
44,
47,
44,
46,
43,
44,
43,
42,
41,
42,
41,
41,
38,
38,
38,
41,
39,
37,
38,
38,
38,
36,
35,
34,
36,
35,
34,
33,
34,
33,
33,
32,
32,
33,
31,
30,
29,
30,
30,
30,
28,
28,
27,
28,
29,
28,
27,
27,
22,
24,
22,
24,
22,
23,
22,
23,
22,
20,
19,
20,
19,
19,
17,
17,
17,
19,
17,
13,
17,
16,
16,
14,
15,
14,
15,
16,
13,
11,
13,
11,
9,
11,
7,
10,
9,
7,
9,
5,
6,
4,
6,
6,
6,
5,
4,
4,
4,
2,
1,
1,
2,
0,
1,
-1,
-3,
-2,
-2,
-1,
-4,
-2,
-5,
-5,
-3,
-5,
-8,
-8,
-7,
-9,
-9,
-7,
-9,
-10,
-10,
-10,
-10,
-10,
-10,
-11,
-13,
-13,
-11,
-15,
-15,
-15,
-16,
-15,
-15,
-15,
-18,
-17,
-16,
-17,
-18,
-20,
-18,
-19,
-18,
-19,
-21,
-22,
-21,
-23,
-23,
-25,
-23,
-24,
-27,
-25,
-23,
-27,
-29,
-29,
-29,
-29,
-29,
-29,
-30,
-31,
-29,
-30,
-31,
-32,
-32,
-34,
-33,
-33,
-34,
-34,
-33,
-34,
-37,
-35,
-36,
-36,
-38,
-39,
-39,
-39,
-41,
-39,
-38,
-42,
-40,
-42,
-42,
-42,
-42,
-42,
-44,
-42,
-46,
-45,
-44,
-44,
-47,
-46,
-47,
-47,
-47,
-47,
-46,
-49,
-49,
-49,
-48,
-48,
-50,
-50,
-50,
-51,
-53,
-51,
-53,
-53,
-52,
-54,
-55,
-53,
-54,
-55,
-55,
-57,
-55,
-55,
-59,
-55,
-56,
-57,
-58,
-58,
-60,
-60,
-58,
-59,
-60,
-61,
-59,
-62,
-61,
-61,
-61,
-63,
-63,
-60,
-64,
-63,
-62,
-61,
-61,
-63,
-61,
-64,
-64,
-65,
-64,
-65,
-65,
-65,
-66,
-66,
-65,
-66,
-67,
-66,
-66,
-71,
-68,
-66,
-66,
-67,
-68,
-68,
-70,
-67,
-68,
-68,
-68,
-68,
-70,
-71,
-71,
-70,
-70,
-71,
-69,
-71,
-72,
-73,
-71,
-72,
-73,
-69,
-71,
-71,
-72,
-74,
-73,
-71,
-73,
-71,
-72,
-73,
-74,
-74,
-74,
-71,
-72,
-73,
-71,
-73,
-74,
-74,
-72,
-73,
-74,
-73,
-72,
-73,
-72,
-74,
-72,
-74,
-72,
-74,
-74,
-74,
-74,
-72,
-73,
-73,
-72,
-74,
-74,
-73,
-73,
-74,
-73,
-73,
-73,
-73,
-75,
-72,
-72,
-75,
-73,
-73,
-73,
-73,
-74,
-72,
-74,
-74,
-72,
-74,
-75,
-72,
-73,
-72,
-74,
-74,
-72,
-73,
-72,
-74,
-73,
-73,
-74,
-73,
-74,
-73,
-74,
-73,
-74,
-71,
-74,
-74,
-74,
-72,
-68,
-69,
-73,
-71,
-71,
-70,
-70,
-70,
-70,
-68,
-72,
-71,
-71,
-70,
-67,
-71,
-69,
-69,
-71,
-70,
-70,
-69,
-69,
-67,
-67,
-66,
-68,
-66,
-67,
-66,
-67,
-66,
-67,
-66,
-67,
-67,
-66,
-65,
-66,
-66,
-65,
-66,
-66,
-64,
-64,
-66,
-64,
-65,
-63,
-63,
-63,
-62,
-61,
-62,
-61,
-63,
-60,
-62,
-61,
-61,
-61,
-63,
-59,
-59,
-60,
-60,
-59,
-57,
-58,
-58,
-58,
-57,
-58,
-55,
-57,
-56,
-55,
-55,
-55,
-55,
-55,
-55,
-54,
-52,
-53,
-55,
-52,
-52,
-51,
-50,
-50,
-51,
-51,
-50,
-50,
-49,
-50,
-47,
-48,
-49,
-47,
-47,
-47,
-47,
-47,
-46,
-46,
-47,
-43,
-42,
-47,
-45,
-46,
-44,
-44,
-42,
-41,
-43,
-42,
-41,
-39,
-40,
-39,
-38,
-40,
-38,
-35,
-38,
-39,
-35,
-35,
-34,
-35,
-34,
-32,
-34,
-36,
-33,
-34,
-34,
-32,
-32,
-31,
-30,
-32,
-29,
-29,
-30,
-30,
-26,
-28,
-26,
-23,
-27,
-23,
-23,
-24,
-23,
-23,
-23,
-22,
-23,
-23,
-21,
-21,
-20,
-20,
-19,
-17,
-18,
-18,
-18,
-15,
-16,
-17,
-16,
-16,
-17,
-15,
-13,
-14,
-12,
-11,
-11,
-11,
-12,
-10,
-9,
-9,
-9,
-9,
-9,
-7,
-7,
-5,
-6,
-6,
-4,
-3,
-4,
-3,
-4,
-4,
-2,
-2,
-1,
-2,
0,
0,
0,
-2,
2,
4,
3,
3,
3,
1,
5,
5,
5,
6,
6,
7,
7,
7,
9,
6,
9,
9,
9,
9,
12,
10,
12,
12,
12,
14,
13,
14,
16,
14,
15,
17,
16,
17,
17,
19,
19,
17,
20,
20,
22,
20,
22,
21,
22,
24,
23,
23,
24,
23,
25,
25,
24,
27,
26,
28,
29,
27,
27,
28,
30,
29,
30,
30,
30,
31,
30,
32,
33,
33,
33,
35,
34,
36,
36,
36,
34,
33,
36,
38,
36,
38,
37,
39,
36,
41,
39,
41,
43,
41,
40,
42,
41,
42,
45,
48,
44,
44,
44,
46,
46,
47,
49,
48,
48,
49,
49,
47,
48,
49,
49,
51,
50,
51,
52,
53,
52,
54,
53,
53,
52,
54,
54,
55,
56,
54,
57,
57,
57,
57,
57,
57,
59,
57,
57,
57,
59,
60,
62,
59,
59,
62,
60,
61,
62,
61,
62,
62,
62,
64,
64,
62,
64,
64,
64,
65,
64,
64,
65,
65,
64,
64,
66,
67,
67,
65,
65,
67,
67,
65,
69,
65,
69,
68,
69,
68,
69,
70,
70,
71,
71,
71,
70,
71,
71,
72,
71,
70,
70,
71,
72,
73,
70,
73,
73,
73,
73,
72,
72,
74,
73,
75,
74,
75,
73,
74,
73,
73,
73,
75,
73,
73,
75,
75,
75,
75,
75,
74,
74,
76,
75,
76,
74,
75,
75,
74,
77,
74,
74,
75,
75,
75,
75,
75,
76,
77,
74,
74,
75,
75,
73,
75,
77,
76,
76,
76,
75,
76,
74,
75,
76,
75,
76,
76,
78,
76,
74,
77,
77,
77,
76,
73,
74,
75,
75,
74,
76,
74,
77,
76,
75,
74,
75,
74,
76,
74,
77,
77,
75,
75,
73,
77,
73,
75,
76,
74,
74,
75,
74,
73,
73,
71,
73,
74,
74,
74,
74,
72,
73,
73,
73,
73,
73,
72,
70,
72,
71,
70,
72,
72,
70,
70,
70,
71,
70,
69,
69,
70,
66,
70,
68,
66,
70,
69,
68,
69,
68,
68,
68,
67,
69,
69,
66,
67,
65,
63,
68,
65,
66,
64,
65,
64,
65,
63,
63,
65,
64,
62,
62,
65,
64,
60,
62,
62,
62,
60,
61,
62,
61,
61,
57,
57,
60,
58,
57,
57,
58,
60,
58,
57,
57,
57,
55,
55,
56,
54,
56,
54,
53,
55,
54,
54,
52,
52,
54,
51,
49,
51,
49,
50,
49,
50,
48,
51,
49,
48,
48,
49,
48,
46,
46,
46,
45,
44,
42,
45,
43,
45,
41,
42,
41,
44,
39,
39,
39,
39,
39,
38,
38,
37,
38,
36,
36,
38,
35,
35,
35,
33,
35,
35,
33,
32,
35,
31,
30,
30,
31,
31,
29,
30,
30,
30,
30,
28,
27,
25,
27,
25,
26,
25,
25,
23,
23,
23,
22,
22,
23,
22,
20,
19,
21,
19,
20,
17,
17,
19,
18,
19,
18,
16,
17,
14,
14,
13,
13,
13,
11,
10,
10,
10,
10,
11,
9,
9,
9,
7,
7,
9,
6,
9,
6,
5,
3,
4,
3,
5,
2,
4,
1,
3,
1,
2,
1,
0,
1,
1,
0,
-1,
-1,
-3,
-4,
-4,
-3,
-5,
-5,
-6,
-6,
-6,
-7,
-8,
-8,
-10,
-10,
-10,
-10,
-11,
-13,
-11,
-12,
-12,
-14,
-14,
-12,
-15,
-15,
-15,
-14,
-16,
-18,
-18,
-16,
-17,
-17,
-17,
-18,
-19,
-20,
-20,
-23,
-21,
-23,
-21,
-22,
-24,
-23,
-26,
-24,
-25,
-27,
-24,
-25,
-29,
-31,
-26,
-29,
-28,
-29,
-31,
-31,
-30,
-31,
-31,
-31,
-33,
-32,
-34,
-35,
-32,
-34,
-37,
-37,
-37,
-37,
-36,
-36,
-36,
-39,
-38,
-39,
-38,
-40,
-39,
-39,
-41,
-41,
-42,
-42,
-42,
-42,
-44,
-45,
-44,
-44,
-43,
-47,
-46,
-47,
-47,
-45,
-47,
-48,
-50,
-49,
-49,
-49,
-50,
-50,
-50,
-51,
-50,
-52,
-50,
-52,
-52,
-53,
-52,
-52,
-54,
-54,
-54,
-55,
-53,
-53,
-54,
-56,
-57,
-57,
-57,
-58,
-56,
-57,
-58,
-59,
-57,
-59,
-58,
-61,
-58,
-60,
-60,
-61,
-60,
-62,
-61,
-62,
-63,
-63,
-63,
-63,
-63,
-64,
-63,
-64,
-64,
-63,
-66,
-65,
-65,
-67,
-64,
-65,
-66,
-64,
-65,
-66,
-66,
-67,
-66,
-68,
-67,
-66,
-68,
-69,
-70,
-68,
-67,
-67,
-68,
-68,
-66,
-70,
-70,
-67,
-70,
-69,
-72,
-70,
-70,
-70,
-71,
-71,
-70,
-69,
-71,
-71,
-70,
-73,
-71,
-72,
-71,
-73,
-72,
-71,
-73,
-73,
-72,
-72,
-71,
-73,
-71,
-72,
-72,
-73,
-74,
-73,
-74,
-74,
-72,
-72,
-71,
-73,
-72,
-74,
-72,
-73,
-74,
-75,
-74,
-74,
-76,
-74,
-73,
-74,
-73,
-72,
-74,
-74,
-72,
-75,
-73,
-74,
-73,
-72,
-72,
-74,
-74,
-73,
-74,
-71,
-74,
-71,
-74,
-73,
-73,
-73,
-72,
-72,
-73,
-73,
-73,
-73,
-71,
-74,
-73,
-72,
-72,
-73,
-73,
-73,
-72,
-71,
-72,
-72,
-73,
-73,
-72,
-72,
-72,
-71,
-72,
-71,
-74,
-72,
-72,
-72,
-70,
-71,
-71,
-71,
-73,
-69,
-71,
-67,
-70,
-69,
-67,
-68,
-68,
-67,
-67,
-66,
-67,
-69,
-66,
-68,
-66,
-66,
-67,
-66,
-70,
-70,
-66,
-66,
-66,
-65,
-65,
-65,
-66,
-66,
-66,
-65,
-66,
-64,
-65,
-62,
-63,
-63,
-63,
-63,
-64,
-63,
-61,
-62,
-64,
-63,
-63,
-62,
-59,
-61,
-61,
-60,
-59,
-60,
-58,
-58,
-58,
-58,
-57,
-56,
-58,
-57,
-56,
-57,
-55,
-58,
-55,
-57,
-53,
-55,
-55,
-53,
-55,
-53,
-55,
-50,
-53,
-51,
-52,
-50,
-54,
-51,
-52,
-50,
-50,
-50,
-50,
-49,
-50,
-48,
-47,
-47,
-47,
-48,
-46,
-47,
-43,
-45,
-47,
-45,
-45,
-45,
-45,
-44,
-42,
-45,
-40,
-41,
-41,
-40,
-40,
-41,
-41,
-39,
-39,
-38,
-38,
-38,
-36,
-35,
-36,
-36,
-37,
-35,
-36,
-33,
-33,
-33,
-35,
-31,
-33,
-31,
-32,
-31,
-32,
-31,
-32,
-30,
-28,
-27,
-27,
-29,
-26,
-25,
-27,
-25,
-23,
-24,
-23,
-23,
-23,
-22,
-23,
-23,
-20,
-19,
-19,
-19,
-18,
-18,
-17,
-19,
-17,
-17,
-16,
-16,
-14,
-15,
-15,
-15,
-15,
-11,
-11,
-16,
-10,
-12,
-11,
-10,
-12,
-7,
-9,
-8,
-10,
-10,
-8,
-9,
-6,
-8,
-5,
-6,
-4,
-3,
-5,
-2,
-1,
-1,
-3,
0,
-1,
0,
1,
2,
1,
1,
3,
4,
2,
5,
4,
2,
5,
8,
7,
6,
9,
8,
9,
10,
7,
9,
9,
9,
12,
11,
14,
11,
12,
12,
15,
14,
14,
13,
16,
17,
17,
15,
17,
17,
18,
18,
19,
18,
21,
20,
20,
21,
23,
23,
22,
21,
23,
23,
25,
27,
25,
27,
27,
25,
25,
29,
27,
27,
28,
31,
30,
32,
31,
33,
30,
31,
32,
31,
34,
34,
33,
34,
33,
36,
35,
37,
35,
37,
38,
38,
39,
38,
38,
40,
39,
41,
40,
40,
44,
42,
42,
43,
45,
45,
44,
44,
45,
46,
45,
44,
46,
46,
49,
48,
49,
49,
48,
52,
50,
53,
52,
51,
53,
51,
52,
53,
53,
54,
54,
55,
54,
55,
54,
54,
55,
56,
56,
56,
57,
57,
58,
59,
62,
57,
59,
60,
57,
60,
61,
59,
60,
62,
61,
62,
63,
62,
65,
64,
63,
63,
65,
65,
63,
65,
65,
66,
64,
66,
65,
65,
65,
66,
66,
65,
68,
66,
67,
69,
66,
66,
69,
68,
68,
68,
69,
70,
70,
69,
70,
71,
70,
70,
73,
70,
71,
70,
70,
70,
71,
71,
71,
74,
71,
73,
76,
72,
75,
73,
72,
73,
74,
73,
74,
75,
73,
74,
73,
74,
76,
77,
73,
77,
75,
75,
74,
73,
76,
73,
73,
75,
75,
76,
73,
75,
75,
75,
75,
76,
76,
75,
76,
76,
75,
78,
76,
76,
75,
74,
74,
75,
74,
76,
77,
76,
77,
75,
75,
77,
76,
75,
73,
75,
76,
76,
75,
75,
76,
74,
76,
75,
76,
74,
75,
76,
75,
75,
76,
75,
75,
77,
75,
75,
73,
74,
76,
75,
75,
73,
74,
77,
73,
75,
75,
73,
75,
77,
75,
74,
73,
74,
73,
72,
73,
73,
75,
73,
70,
73,
72,
73,
71,
72,
71,
70,
71,
73,
69,
70,
72,
70,
70,
70,
70,
70,
70,
70,
68,
69,
69,
68,
68,
70,
67,
68,
67,
67,
67,
65,
67,
67,
66,
65,
65,
66,
64,
65,
65,
66,
64,
65,
65,
65,
65,
62,
62,
63,
63,
63,
62,
62,
63,
61,
62,
61,
62,
61,
61,
59,
60,
59,
61,
58,
57,
57,
57,
57,
57,
59,
55,
57,
57,
55,
57,
54,
54,
52,
55,
52,
53,
52,
51,
53,
51,
53,
53,
51,
50,
49,
49,
51,
47,
49,
46,
47,
49,
48,
47,
46,
47,
46,
45,
46,
44,
45,
42,
42,
41,
41,
41,
41,
41,
39,
40,
39,
41,
39,
40,
39,
37,
37,
35,
35,
35,
36,
36,
36,
33,
32,
32,
33,
32,
32,
31,
30,
31,
30,
30,
30,
29,
29,
29,
30,
27,
25,
26,
25,
24,
24,
23,
24,
23,
23,
23,
23,
20,
21,
21,
21,
20,
21,
21,
18,
16,
17,
17,
15,
15,
17,
15,
14,
13,
12,
12,
13,
12,
10,
13,
13,
11,
9,
10,
9,
7,
10,
8,
8,
6,
4,
6,
5,
6,
3,
4,
4,
3,
3,
1,
2,
1,
1,
0,
0,
-2,
-2,
-2,
-4,
-3,
-3,
-3,
-5,
-4,
-7,
-5,
-8,
-7,
-9,
-7,
-7,
-7,
-9,
-10,
-10,
-11,
-12,
-13,
-10,
-10,
-11,
-13,
-14,
-14,
-14,
-13,
-16,
-16,
-15,
-16,
-18,
-17,
-18,
-19,
-20,
-18,
-21,
-20,
-20,
-20,
-21,
-23,
-23,
-23,
-24,
-24,
-23,
-23,
-25,
-24,
-28,
-25,
-27,
-26,
-28,
-29,
-29,
-29,
-29,
-31,
-30,
-31,
-33,
-32,
-34,
-33,
-33,
-34,
-34,
-35,
-36,
-35,
-36,
-38,
-38,
-37,
-37,
-39,
-39,
-39,
-39,
-41,
-39,
-40,
-41,
-44,
-42,
-41,
-42,
-44,
-42,
-46,
-42,
-46,
-44,
-46,
-47,
-44,
-46,
-47,
-46,
-48,
-47,
-50,
-48,
-50,
-50,
-49,
-50,
-50,
-50,
-54,
-50,
-52,
-53,
-51,
-55,
-54,
-53,
-51,
-52,
-55,
-56,
-56,
-58,
-55,
-55,
-57,
-56,
-57,
-57,
-58,
-57,
-58,
-59,
-58,
-59,
-59,
-61,
-60,
-60,
-63,
-62,
-59,
-63,
-61,
-62,
-63,
-62,
-63,
-63,
-64,
-64,
-64,
-66,
-64,
-62,
-63,
-66,
-65,
-65,
-66,
-66,
-66,
-64,
-67,
-66,
-66,
-68,
-67,
-67,
-69,
-66,
-69,
-65,
-69,
-69,
-69,
-71,
-70,
-69,
-69,
-70,
-69,
-71,
-70,
-68,
-71,
-69,
-72,
-71,
-71,
-71,
-72,
-70,
-71,
-72,
-74,
-72,
-73,
-73,
-71,
-71,
-72,
-71,
-73,
-74,
-73,
-74,
-73,
-72,
-73,
-72,
-73,
-72,
-72,
-73,
-73,
-73,
-73,
-71,
-72,
-74,
-72,
-73,
-71,
-72,
-73,
-74,
-73,
-74,
-74,
-73,
-74,
-72,
-74,
-74,
-73,
-72,
-74,
-73,
-74,
-74,
-74,
-73,
-72,
-75,
-72,
-74,
-74,
-74,
-74,
-73,
-72,
-74,
-73,
-73,
-73,
-72,
-73,
-73,
-74,
-72,
-73,
-73,
-71,
-73,
-74,
-73,
-71,
-72,
-72,
-73,
-73,
-74,
-71,
-71,
-71,
-73,
-72,
-71,
-70,
-71,
-72,
-70,
-73,
-70,
-71,
-73,
-71,
-71,
-68,
-69,
-71,
-70,
-70,
-67,
-69,
-71,
-69,
-68,
-68,
-68,
-68,
-68,
-67,
-65,
-67,
-67,
-68,
-67,
-66,
-66,
-66,
-66,
-65,
-65,
-66,
-66,
-68,
-65,
-63,
-63,
-64,
-63,
-63,
-63,
-63,
-63,
-62,
-62,
-61,
-62,
-60,
-61,
-63,
-59,
-61,
-59,
-60,
-58,
-61,
-60,
-59,
-60,
-60,
-59,
-57,
-58,
-57,
-57,
-58,
-58,
-57,
-57,
-58,
-56,
-55,
-55,
-55,
-55,
-55,
-54,
-55,
-53,
-51,
-53,
-51,
-51,
-53,
-53,
-49,
-50,
-50,
-49,
-52,
-48,
-49,
-48,
-47,
-47,
-47,
-48,
-49,
-48,
-47,
-43,
-46,
-44,
-43,
-44,
-43,
-45,
-43,
-44,
-43,
-42,
-41,
-41,
-40,
-39,
-38,
-41,
-39,
-38,
-39,
-39,
-36,
-34,
-34,
-36,
-34,
-35,
-35,
-34,
-33,
-33,
-32,
-32,
-34,
-31,
-31,
-31,
-32,
-30,
-32,
-29,
-26,
-28,
-28,
-29,
-26,
-26,
-25,
-26,
-27,
-26,
-23,
-23,
-24,
-22,
-23,
-21,
-22,
-21,
-21,
-20,
-20,
-20,
-18,
-16,
-19,
-18,
-16,
-16,
-16,
-15,
-14,
-14,
-14,
-15,
-15,
-12,
-12,
-11,
-10,
-10,
-10,
-10,
-10,
-8,
-8,
-7,
-9,
-8,
-4,
-5,
-7,
-7,
-5,
-5,
-4,
-4,
-2,
-2,
-2,
0,
0,
0,
1,
0,
0,
3,
3,
2,
2,
2,
4,
5,
4,
5,
6,
6,
6,
9,
7,
9,
9,
9,
10,
9,
9,
9,
12,
13,
14,
12,
14,
14,
13,
14,
16,
15,
15,
16,
18,
16,
17,
16,
19,
20,
20,
19,
22,
22,
21,
23,
22,
25,
24,
23,
23,
24,
24,
26,
25,
27,
26,
26,
30,
28,
29,
29,
29,
31,
30,
33,
31,
33,
32,
31,
31,
33,
34,
33,
34,
34,
35,
37,
35,
38,
35,
39,
39,
39,
38,
39,
39,
40,
40,
41,
43,
42,
41,
42,
42,
42,
44,
46,
45,
45,
43,
48,
45,
49,
47,
50,
49,
47,
49,
50,
49,
52,
49,
51,
52,
52,
51,
51,
54,
53,
54,
53,
52,
53,
55,
55,
55,
54,
57,
57,
57,
56,
57,
57,
59,
57,
59,
60,
60,
60,
62,
58,
62,
62,
62,
62,
62,
62,
63,
63,
63,
61,
62,
64,
65,
63,
65,
63,
64,
64,
65,
67,
65,
67,
65,
66,
67,
67,
66,
69,
69,
68,
69,
69,
70,
67,
71,
70,
68,
68,
69,
71,
71,
67,
70,
70,
72,
70,
70,
71,
70,
74,
72,
72,
73,
74,
71,
71,
73,
74,
73,
73,
76,
73,
73,
76,
73,
76,
73,
73,
74,
75,
75,
74,
73,
75,
76,
76,
76,
74,
76,
73,
74,
77,
77,
74,
75,
73,
76,
75,
76,
76,
76,
75,
74,
77,
76,
76,
76,
75,
73,
77,
78,
75,
77,
74,
77,
75,
78,
75,
75,
74,
78,
75,
75,
75,
75,
75,
76,
76,
76,
76,
76,
76,
76,
77,
75,
76,
78,
76,
78,
75,
75,
74,
77,
74,
77,
73,
76,
75,
75,
77,
74,
74,
74,
75,
73,
73,
74,
75,
74,
73,
73,
73,
73,
72,
71,
74,
72,
73,
70,
71,
71,
73,
74,
73,
72,
71,
71,
70,
70,
70,
69,
70,
68,
69,
70,
70,
69,
68,
70,
69,
70,
69,
70,
66,
69,
67,
66,
67,
65,
66,
66,
65,
66,
65,
65,
64,
65,
65,
64,
65,
65,
64,
63,
64,
63,
64,
60,
64,
62,
62,
61,
62,
62,
62,
61,
61,
59,
63,
59,
59,
58,
57,
58,
60,
58,
54,
59,
57,
55,
56,
56,
55,
55,
56,
55,
56,
52,
56,
52,
52,
53,
51,
54,
53,
50,
52,
51,
51,
49,
50,
49,
48,
49,
49,
48,
48,
45,
46,
46,
46,
45,
45,
44,
45,
43,
43,
40,
41,
42,
41,
41,
40,
41,
42,
38,
42,
39,
35,
38,
37,
36,
37,
37,
32,
34,
33,
33,
33,
33,
31,
32,
30,
33,
31,
32,
33,
31,
30,
28,
28,
27,
29,
28,
26,
27,
28,
26,
25,
25,
23,
22,
22,
22,
22,
22,
21,
21,
20,
19,
19,
17,
17,
19,
17,
17,
17,
15,
16,
16,
13,
14,
14,
13,
13,
10,
12,
10,
9,
9,
11,
9,
9,
7,
7,
9,
6,
6,
6,
6,
5,
3,
5,
5,
3,
1,
1,
1,
1,
1,
1,
0,
-1,
0,
-2,
0,
-2,
-2,
-5,
-4,
-3,
-3,
-5,
-6,
-5,
-4,
-5,
-7,
-7,
-10,
-10,
-10,
-10,
-10,
-10,
-13,
-11,
-12,
-12,
-12,
-15,
-15,
-14,
-15,
-15,
-15,
-17,
-16,
-15,
-17,
-18,
-16,
-17,
-18,
-19,
-19,
-19,
-21,
-22,
-23,
-23,
-24,
-21,
-23,
-24,
-24,
-23,
-27,
-29,
-28,
-29,
-26,
-29,
-29,
-29,
-31,
-30,
-31,
-31,
-31,
-32,
-31,
-32,
-34,
-33,
-34,
-33,
-34,
-34,
-35,
-36,
-36,
-39,
-37,
-36,
-38,
-37,
-39,
-38,
-40,
-40,
-39,
-41,
-41,
-42,
-41,
-42,
-43,
-43,
-43,
-43,
-44,
-45,
-44,
-43,
-46,
-47,
-48,
-46,
-47,
-47,
-48,
-47,
-48,
-48,
-48,
-51,
-51,
-50,
-51,
-50,
-51,
-52,
-54,
-51,
-53,
-54,
-54,
-53,
-52,
-54,
-55,
-55,
-55,
-55,
-55,
-56,
-58,
-57,
-59,
-58,
-59,
-61,
-60,
-59,
-60,
-59,
-61,
-61,
-60,
-62,
-60,
-63,
-62,
-63,
-63,
-63,
-63,
-64,
-63,
-64,
-62,
-64,
-66,
-64,
-64,
-66,
-66,
-66,
-65,
-65,
-66,
-65,
-66,
-65,
-67,
-68,
-68,
-67,
-68,
-66,
-65,
-67,
-69,
-69,
-69,
-68,
-68,
-70,
-70,
-70,
-71,
-69,
-71,
-70,
-68,
-69,
-69,
-71,
-71,
-72,
-72,
-70,
-70,
-71,
-73,
-71,
-71,
-73,
-72,
-72,
-71,
-74,
-74,
-74,
-73,
-74,
-73,
-74,
-72,
-73,
-73,
-72,
-72,
-72,
-74,
-73,
-72,
-73,
-71,
-73,
-70,
-75,
-73,
-71,
-72,
-73,
-71,
-72,
-74,
-72,
-73,
-73,
-73,
-72,
-73,
-74,
-72,
-73,
-72,
-76,
-75,
-74,
-72,
-73,
-74,
-73,
-71,
-73,
-73,
-72,
-72,
-75,
-72,
-73,
-73,
-71,
-73,
-73,
-72,
-73,
-72,
-72,
-71,
-72,
-72,
-72,
-73,
-71,
-72,
-73,
-73,
-74,
-72,
-71,
-72,
-72,
-74,
-71,
-71,
-72,
-72,
-71,
-71,
-69,
-69,
-71,
-69,
-71,
-69,
-71,
-71,
-68,
-68,
-70,
-70,
-69,
-69,
-68,
-68,
-68,
-69,
-68,
-70,
-69,
-66,
-68,
-66,
-65,
-66,
-66,
-66,
-66,
-65,
-69,
-67,
-65,
-63,
-66,
-66,
-65,
-64,
-64,
-64,
-63,
-64,
-63,
-63,
-63,
-63,
-62,
-62,
-61,
-61,
-62,
-62,
-62,
-61,
-62,
-59,
-61,
-60,
-60,
-59,
-57,
-58,
-60,
-58,
-57,
-57,
-57,
-56,
-56,
-55,
-56,
-55,
-54,
-56,
-57,
-55,
-53,
-54,
-54,
-53,
-55,
-53,
-51,
-52,
-51,
-52,
-52,
-51,
-51,
-49,
-49,
-49,
-50,
-47,
-47,
-47,
-47,
-47,
-47,
-47,
-47,
-45,
-46,
-44,
-44,
-42,
-42,
-44,
-42,
-41,
-43,
-43,
-42,
-42,
-39,
-40,
-39,
-42,
-37,
-41,
-39,
-37,
-39,
-36,
-35,
-35,
-36,
-36,
-35,
-34,
-34,
-32,
-32,
-32,
-31,
-31,
-31,
-31,
-29,
-30,
-28,
-28,
-27,
-30,
-28,
-28,
-28,
-26,
-26,
-23,
-25,
-26,
-23,
-23,
-23,
-23,
-21,
-20,
-20,
-21,
-18,
-20,
-18,
-20,
-19,
-17,
-18,
-16,
-17,
-16,
-17,
-16,
-15,
-13,
-13,
-13,
-11,
-15,
-10,
-10,
-9,
-12,
-10,
-7,
-7,
-7,
-9,
-8,
-7,
-3,
-6,
-6,
-4,
-4,
-3,
-3,
-3,
-2,
0,
-1,
-2,
0,
-2,
-2,
-2,
0,
1,
3,
1,
3,
2,
6,
4,
5,
3,
6,
7,
7,
9,
9,
6,
10,
7,
8,
11,
9,
10,
11,
12,
14,
11,
14,
13,
16,
14,
14,
14,
17,
19,
16,
17,
18,
19,
17,
18,
20,
21,
19,
22,
21,
21,
22,
22,
22,
23,
23,
25,
25,
26,
25,
25,
27,
28,
27,
28,
28,
27,
30,
31,
31,
31,
32,
33,
30,
31,
33,
33,
35,
33,
34,
37,
34,
37,
35,
37,
35,
38,
36,
41,
38,
38,
39,
41,
41,
43,
41,
41,
41,
45,
46,
43,
46,
44,
44,
46,
47,
47,
48,
47,
48,
49,
48,
47,
49,
48,
50,
50,
49,
51,
50,
50,
51,
52,
53,
54,
53,
53,
54,
55,
55,
54,
55,
57,
57,
57,
56,
58,
57,
58,
61,
57,
59,
57,
61,
59,
61,
61,
60,
61,
61,
60,
62,
64,
64,
62,
63,
63,
65,
64,
64,
64,
64,
64,
64,
65,
65,
67,
65,
66,
67,
66,
67,
67,
68,
67,
67,
67,
68,
67,
69,
68,
68,
69,
69,
70,
70,
70,
68,
70,
70,
70,
71,
71,
71,
73,
73,
70,
73,
74,
72,
71,
72,
73,
75,
73,
73,
71,
73,
75,
73,
74,
74,
72,
73,
75,
75,
73,
75,
73,
73,
73,
76,
76,
75,
73,
77,
74,
76,
76,
74,
76,
73,
74,
75,
76,
75,
75,
75,
74,
73,
76,
76,
74,
74,
76,
76,
76,
77,
76,
78,
75,
73,
76,
77,
75,
76,
79,
75,
75,
74,
76,
